
Cable;Length;SN;Repeater SN
# On wedge L1DDC Cables
QL3P_Layer_2_sFEB_L1DDC_1_L1DDC_L2_s-pFE3_1m;1.0m;21582;
QL2P_Layer_2_sFEB_L1DDC_1_L1DDC_L2_s-pFE2_2m;2m;21574;
QL1P_Layer_2_sFEB_L1DDC_2_L1DDC_L2_s-pFE1-2_3m;3m;21564;
QL1P_Layer_2_sFEB_L1DDC_1_L1DDC_L2_s-pFE1-1_3m;3m;21563;
QL1P_Layer_1_pFEB_L1DDC_1_L1DDC_L1_s-pFE1-1_3m;3m;21557;
QL2P_Layer_1_pFEB_L1DDC_1_L1DDC_L1_s-pFE2_1.5m;1.5m;21569;
QL3P_Layer_1_pFEB_L1DDC_1_L1DDC_L1_s-pFE3_1m;1.0m;21577;
QL3P_Layer_4_sFEB_L1DDC_1_L1DDC_L4_s-pFE3_1m;1.0m;21584;
QL2P_Layer_4_sFEB_L1DDC_1_L1DDC_L4_s-pFE2_2m;2m;21576;
QL1P_Layer_4_sFEB_L1DDC_2_L1DDC_L4_s-pFE1-2_3m;3m;21568;
QL1P_Layer_4_sFEB_L1DDC_1_L1DDC_L4_s-pFE1-1_3m;3m;21567;
QL1P_Layer_3_pFEB_L1DDC_1_L1DDC_L3_s-pFE1-1_3m;3m;21559;
QL2P_Layer_3_pFEB_L1DDC_1_L1DDC_L3_s-pFE2_1.5m;1.5m;21571;
QL3P_Layer_3_pFEB_L1DDC_1_L1DDC_L3_s-pFE3_1m;1.0m;21579;
QL3P_Layer_3_sFEB_L1DDC_1_L1DDC_L3_s-pFE3_1m;1.0m;21583;
QL2P_Layer_3_sFEB_L1DDC_1_L1DDC_L3_s-pFE2_2m;2m;21575;
QL1P_Layer_3_sFEB_L1DDC_2_L1DDC_L3_s-pFE1-2_3m;3m;21566;
QL1P_Layer_3_sFEB_L1DDC_1_L1DDC_L3_s-pFE1-1_3m;3m;21565;
QL1P_Layer_4_pFEB_L1DDC_1_L1DDC_L4_s-pFE1-1_3m;3m;21560;
QL2P_Layer_4_pFEB_L1DDC_1_L1DDC_L4_s-pFE2_1.5m;1.5m;21572;
QL3P_Layer_4_pFEB_L1DDC_1_L1DDC_L4_s-pFE3_1m;1.0m;21580;
QL3P_Layer_1_sFEB_L1DDC_1_L1DDC_L1_s-pFE3_1m;1.0m;21581;
QL2P_Layer_1_sFEB_L1DDC_1_L1DDC_L1_s-pFE2_2m;2m;21573;
QL1P_Layer_1_sFEB_L1DDC_2_L1DDC_L1_s-pFE1-2_3m;3m;21562;
QL1P_Layer_1_sFEB_L1DDC_1_L1DDC_L1_s-pFE1-1_3m;3m;21561;
QL1P_Layer_2_pFEB_L1DDC_1_L1DDC_L2_s-pFE1-1_3m;3m;21558;
QL2P_Layer_2_pFEB_L1DDC_1_L1DDC_L2_s-pFE2_1.5m;1.5m;21570;
QL3P_Layer_2_pFEB_L1DDC_1_L1DDC_L2_s-pFE3_1m;1.0m;21578;
# On wedge Trigger Cables
XP-OUT9-LVD6R-3-1-4-QL1P-L2-sFEB_3;4.25m;21592;
XP-OUT10-LVD6R-3-1-5-QL2P-L2-sFEB_3;4.25m;21594;
QL1P_L2_sFEB_4_SR_Router7_J1;3m;21607;
QL2P_L2_sFEB_4_SR_Router7_J2;3m;21609;
XP-OUT11-LVD6R-3-1-6-QL3P-L2-sFEB_3;3m;21596;
QL3P_L2_sFEB_4_SR_Router7_J3;3m;21611;
XP-OUT3-LVD6R-3-2-4-QL1P-L4-sFEB_3;4.25m;21591;
XP-OUT4-LVD6R-3-2-5-QL2P-L4-sFEB_3;4.25m;21593;
QL1P_L4_sFEB_4_SR_Router8_J1;3m;21606;
QL2P_L4_sFEB_4_SR_Router8_J2;3m;21608;
XP-OUT5-LVD6R-3-2-6-QL3P-L4-sFEB_3;3m;21595;
QL3P_L4_sFEB_4_SR_Router8_J3;3m;21610;
XP-OUT0-LVD6R-2-2-4-QL1P-L3-sFEB_3;4.25m;21585;
XP-OUT1-LVD6R-2-2-5-QL2P-L3-sFEB_3;4.25m;21587;
QL1P_L3_sFEB_4_SR_Router4_J1;3m;21600;
QL2P_L3_sFEB_4_SR_Router4_J2;3m;21602;
XP-OUT2-LVD6R-2-2-6-QL3P-L3-sFEB_3;3m;21589;
QL3P_L3_sFEB_4_SR_Router4_J3;3m;21604;
XP-OUT6-LVD6R-2-1-4-QL1P-L1-sFEB_3;4.25m;21586;
XP-OUT7-LVD6R-2-1-5-QL2P-L1-sFEB_3;4.25m;21588;
QL1P_L1_sFEB_4_SR_Router3_J1;3m;21601;
QL2P_L1_sFEB_4_SR_Router3_J2;3m;21603;
XP-OUT8-LVD6R-2-1-6-QL3P-L1-sFEB_3;3m;21590;
QL3P_L1_sFEB_4_SR_Router3_J3;3m;21605;
pFEB_2_QL1P_L2L4_QL2P_L2L4_SRepeater_PT_IN1;2.5/1.5m breakout;21597;
pFEB_2_QL3P_L1L2L3L4_PT_IN2;4m breakout;21598;
pFEB_2_QL1P_L1L3_QL2P_L1L3_SRepeater_PT_IN4;2.5/1.5m breakout;21599;
# Off wedge Trigger Cables
pFEB_2_QL1P_L1L3_QL2P_L1L3_SRepeater_PT_IN4;3m;21625;20MNESR1RXXXXX
QL1P_L4_sFEB_4_SR_Router8_J1;3m;21632;20MNESR1RXXXXX
QL1P_L2_sFEB_4_SR_Router7_J1;3m;21633;20MNESR1RXXXXX
QL2P_L4_sFEB_4_SR_Router8_J2;3m;21634;20MNESR1RXXXXX
QL2P_L2_sFEB_4_SR_Router7_J2;3m;21635;20MNESR1RXXXXX
QL3P_L4_sFEB_4_SR_Router8_J3;3m;21636;20MNESR1RXXXXX
QL3P_L2_sFEB_4_SR_Router7_J3;3m;21637;20MNESR1RXXXXX
pFEB_2_QL1P_L2L4_QL2P_L2L4_SRepeater_PT_IN1;3m;21624;20MNESR1RXXXXX
QL1P_L3_sFEB_4_SR_Router4_J1;3m;21626;20MNESR1RXXXXX
QL1P_L1_sFEB_4_SR_Router3_J1;3m;21627;20MNESR1RXXXXX
QL2P_L3_sFEB_4_SR_Router4_J2;3m;21628;20MNESR1RXXXXX
QL2P_L1_sFEB_4_SR_Router3_J2;3m;21629;20MNESR1RXXXXX
QL3P_L3_sFEB_4_SR_Router4_J3;3m;21630;20MNESR1RXXXXX
QL3P_L1_sFEB_4_SR_Router3_J3;3m;21631;20MNESR1RXXXXX
XP-OUT3-LVD6R-3-2-4-QL1P-L4-sFEB_3;2m;21618;
XP-OUT9-LVD6R-3-1-4-QL1P-L2-sFEB_3;2m;21619;
XP-OUT4-LVD6R-3-2-5-QL2P-L4-sFEB_3;2m;21620;
XP-OUT10-LVD6R-3-1-5-QL2P-L2-sFEB_3;2m;21621;
XP-OUT5-LVD6R-3-2-6-QL3P-L4-sFEB_3;2m;21622;
XP-OUT11-LVD6R-3-1-6-QL3P-L2-sFEB_3;2m;21623;
XP-OUT0-LVD6R-2-2-4-QL1P-L3-sFEB_3;2m;21612;
XP-OUT6-LVD6R-2-1-4-QL1P-L1-sFEB_3;2m;21613;
XP-OUT1-LVD6R-2-2-5-QL2P-L3-sFEB_3;2m;21614;
XP-OUT7-LVD6R-2-1-5-QL2P-L1-sFEB_3;2m;21615;
XP-OUT2-LVD6R-2-2-6-QL3P-L3-sFEB_3;2m;21616;
XP-OUT8-LVD6R-2-1-6-QL3P-L1-sFEB_3;2m;21617;
