
Cable;Length;SN;Repeater SN
# On wedge L1DDC Cables
QL3C_Layer_3_sFEB_L1DDC_1_L1DDC_L3_s-pFE3_1m;1.0m;22150;
QL2C_Layer_3_sFEB_L1DDC_1_L1DDC_L3_s-pFE2_2m;2m;22142;
QL1C_Layer_3_sFEB_L1DDC_2_L1DDC_L3_s-pFE1-2_3m;3m;22133;
QL1C_Layer_3_sFEB_L1DDC_1_L1DDC_L3_s-pFE1-1_3m;3m;22132;
QL1C_Layer_4_pFEB_L1DDC_1_L1DDC_L4_s-pFE1-1_3m;3m;22127;
QL2C_Layer_4_pFEB_L1DDC_1_L1DDC_L4_s-pFE2_1.5m;1.5m;22139;
QL3C_Layer_4_pFEB_L1DDC_1_L1DDC_L4_s-pFE3_1m;1.0m;22147;
QL3C_Layer_1_sFEB_L1DDC_1_L1DDC_L1_s-pFE3_1m;1.0m;22148;
QL2C_Layer_1_sFEB_L1DDC_1_L1DDC_L1_s-pFE2_2m;2m;22140;
QL1C_Layer_1_sFEB_L1DDC_2_L1DDC_L1_s-pFE1-2_3m;3m;22129;
QL1C_Layer_1_sFEB_L1DDC_1_L1DDC_L1_s-pFE1-1_3m;3m;22128;
QL1C_Layer_2_pFEB_L1DDC_1_L1DDC_L2_s-pFE1-1_3m;3m;22125;
QL2C_Layer_2_pFEB_L1DDC_1_L1DDC_L2_s-pFE2_1.5m;1.5m;22137;
QL3C_Layer_2_pFEB_L1DDC_1_L1DDC_L2_s-pFE3_1m;1.0m;22145;
QL3C_Layer_2_sFEB_L1DDC_1_L1DDC_L2_s-pFE3_1m;1.0m;22149;
QL2C_Layer_2_sFEB_L1DDC_1_L1DDC_L2_s-pFE2_2m;2m;22141;
QL1C_Layer_2_sFEB_L1DDC_2_L1DDC_L2_s-pFE1-2_3m;3m;22131;
QL1C_Layer_2_sFEB_L1DDC_1_L1DDC_L2_s-pFE1-1_3m;3m;22130;
QL1C_Layer_1_pFEB_L1DDC_1_L1DDC_L1_s-pFE1-1_3m;3m;22124;
QL2C_Layer_1_pFEB_L1DDC_1_L1DDC_L1_s-pFE2_1.5m;1.5m;22136;
QL3C_Layer_1_pFEB_L1DDC_1_L1DDC_L1_s-pFE3_1m;1.0m;22144;
QL3C_Layer_4_sFEB_L1DDC_1_L1DDC_L4_s-pFE3_1m;1.0m;22151;
QL2C_Layer_4_sFEB_L1DDC_1_L1DDC_L4_s-pFE2_2m;2m;22143;
QL1C_Layer_4_sFEB_L1DDC_2_L1DDC_L4_s-pFE1-2_3m;3m;22135;
QL1C_Layer_4_sFEB_L1DDC_1_L1DDC_L4_s-pFE1-1_3m;3m;22134;
QL1C_Layer_3_pFEB_L1DDC_1_L1DDC_L3_s-pFE1-1_3m;3m;22126;
QL2C_Layer_3_pFEB_L1DDC_1_L1DDC_L3_s-pFE2_1.5m;1.5m;22138;
QL3C_Layer_3_pFEB_L1DDC_1_L1DDC_L3_s-pFE3_1m;1.0m;22146;
# On wedge Trigger Cables
XP-OUT12-LVD6R-2-2-1-QL1C-L3-sFEB_3;4.25m;22152;
XP-OUT13-LVD6R-2-2-2-QL2C-L3-sFEB_3;4.25m;22154;
QL1C_L3_sFEB_4_SR_Router2_J1;3m;22167;
QL2C_L3_sFEB_4_SR_Router2_J2;3m;22169;
XP-OUT14-LVD6R-2-2-3-QL3C-L3-sFEB_3;3m;22156;
QL3C_L3_sFEB_4_SR_Router2_J3;3m;22171;
XP-OUT18-LVD6R-2-1-1-QL1C-L1-sFEB_3;4.25m;22153;
XP-OUT19-LVD6R-2-1-2-QL2C-L1-sFEB_3;4.25m;22155;
QL1C_L1_sFEB_4_SR_Router1_J1;3m;22168;
QL2C_L1_sFEB_4_SR_Router1_J2;3m;22170;
XP-OUT20-LVD6R-2-1-3-QL3C-L1-sFEB_3;3m;22157;
QL3C_L1_sFEB_4_SR_Router1_J3;3m;22172;
XP-OUT21-LVD6R-3-1-1-QL1C-L2-sFEB_3;4.25m;22159;
XP-OUT22-LVD6R-3-1-2-QL2C-L2-sFEB_3;4.25m;22161;
QL1C_L2_sFEB_4_SR_Router5_J1;3m;22174;
QL2C_L2_sFEB_4_SR_Router5_J2;3m;22176;
XP-OUT23-LVD6R-3-1-3-QL3C-L2-sFEB_3;3m;22163;
QL3C_L2_sFEB_4_SR_Router5_J3;3m;22178;
XP-OUT15-LVD6R-3-2-1-QL1C-L4-sFEB_3;4.25m;22158;
XP-OUT16-LVD6R-3-2-2-QL2C-L4-sFEB_3;4.25m;22160;
QL1C_L4_sFEB_4_SR_Router6_J1;3m;22173;
QL2C_L4_sFEB_4_SR_Router6_J2;3m;22175;
XP-OUT17-LVD6R-3-2-3-QL3C-L4-sFEB_3;3m;22162;
QL3C_L4_sFEB_4_SR_Router6_J3;3m;22177;
pFEB_2_QL1C_L2L4_QL2C_L2L4_SRepeater_PT_IN0;2.5/1.5m breakout;22164;
pFEB_2_QL3C_L1L2L3L4_PT_IN3;4m breakout;22165;
pFEB_2_QL1C_L1L3_QL2C_L1L3_SRepeater_PT_IN5;2.5/1.5m breakout;22166;
# Off wedge Trigger Cables
pFEB_2_QL1C_L2L4_QL2C_L2L4_SRepeater_PT_IN0;3m;22191;20MNESR1RXXXXX
QL1C_L3_sFEB_4_SR_Router2_J1;3m;22193;20MNESR1RXXXXX
QL1C_L1_sFEB_4_SR_Router1_J1;3m;22194;20MNESR1RXXXXX
QL2C_L3_sFEB_4_SR_Router2_J2;3m;22195;20MNESR1RXXXXX
QL2C_L1_sFEB_4_SR_Router1_J2;3m;22196;20MNESR1RXXXXX
QL3C_L3_sFEB_4_SR_Router2_J3;3m;22197;20MNESR1RXXXXX
QL3C_L1_sFEB_4_SR_Router1_J3;3m;22198;20MNESR1RXXXXX
pFEB_2_QL1C_L1L3_QL2C_L1L3_SRepeater_PT_IN5;3m;22192;20MNESR1RXXXXX
QL1C_L4_sFEB_4_SR_Router6_J1;3m;22199;20MNESR1RXXXXX
QL1C_L2_sFEB_4_SR_Router5_J1;3m;22200;20MNESR1RXXXXX
QL2C_L4_sFEB_4_SR_Router6_J2;3m;22201;20MNESR1RXXXXX
QL2C_L2_sFEB_4_SR_Router5_J2;3m;22202;20MNESR1RXXXXX
QL3C_L4_sFEB_4_SR_Router6_J3;3m;22203;20MNESR1RXXXXX
QL3C_L2_sFEB_4_SR_Router5_J3;3m;22204;20MNESR1RXXXXX
XP-OUT12-LVD6R-2-2-1-QL1C-L3-sFEB_3;2m;22179;
XP-OUT18-LVD6R-2-1-1-QL1C-L1-sFEB_3;2m;22180;
XP-OUT13-LVD6R-2-2-2-QL2C-L3-sFEB_3;2m;22181;
XP-OUT19-LVD6R-2-1-2-QL2C-L1-sFEB_3;2m;22182;
XP-OUT14-LVD6R-2-2-3-QL3C-L3-sFEB_3;2m;22183;
XP-OUT20-LVD6R-2-1-3-QL3C-L1-sFEB_3;2m;22184;
XP-OUT15-LVD6R-3-2-1-QL1C-L4-sFEB_3;2m;22185;
XP-OUT21-LVD6R-3-1-1-QL1C-L2-sFEB_3;2m;22186;
XP-OUT16-LVD6R-3-2-2-QL2C-L4-sFEB_3;2m;22187;
XP-OUT22-LVD6R-3-1-2-QL2C-L2-sFEB_3;2m;22188;
XP-OUT17-LVD6R-3-2-3-QL3C-L4-sFEB_3;2m;22189;
XP-OUT23-LVD6R-3-1-3-QL3C-L2-sFEB_3;2m;22190;
