
Cable;Length;SN;Repeater SN
# On wedge L1DDC Cables
QL3P_Layer_2_sFEB_L1DDC_1_L1DDC_L2_s-pFE3_1m;1.0m;21258;
QL2P_Layer_2_sFEB_L1DDC_1_L1DDC_L2_s-pFE2_2m;2m;21250;
QL1P_Layer_2_sFEB_L1DDC_2_L1DDC_L2_s-pFE1-2_3m;3m;21240;
QL1P_Layer_2_sFEB_L1DDC_1_L1DDC_L2_s-pFE1-1_3m;3m;21239;
QL1P_Layer_1_pFEB_L1DDC_1_L1DDC_L1_s-pFE1-1_3m;3m;21233;
QL2P_Layer_1_pFEB_L1DDC_1_L1DDC_L1_s-pFE2_1.5m;1.5m;21245;
QL3P_Layer_1_pFEB_L1DDC_1_L1DDC_L1_s-pFE3_1m;1.0m;21253;
QL3P_Layer_4_sFEB_L1DDC_1_L1DDC_L4_s-pFE3_1m;1.0m;21260;
QL2P_Layer_4_sFEB_L1DDC_1_L1DDC_L4_s-pFE2_2m;2m;21252;
QL1P_Layer_4_sFEB_L1DDC_2_L1DDC_L4_s-pFE1-2_3m;3m;21244;
QL1P_Layer_4_sFEB_L1DDC_1_L1DDC_L4_s-pFE1-1_3m;3m;21243;
QL1P_Layer_3_pFEB_L1DDC_1_L1DDC_L3_s-pFE1-1_3m;3m;21235;
QL2P_Layer_3_pFEB_L1DDC_1_L1DDC_L3_s-pFE2_1.5m;1.5m;21247;
QL3P_Layer_3_pFEB_L1DDC_1_L1DDC_L3_s-pFE3_1m;1.0m;21255;
QL3P_Layer_3_sFEB_L1DDC_1_L1DDC_L3_s-pFE3_1m;1.0m;21259;
QL2P_Layer_3_sFEB_L1DDC_1_L1DDC_L3_s-pFE2_2m;2m;21251;
QL1P_Layer_3_sFEB_L1DDC_2_L1DDC_L3_s-pFE1-2_3m;3m;21242;
QL1P_Layer_3_sFEB_L1DDC_1_L1DDC_L3_s-pFE1-1_3m;3m;21241;
QL1P_Layer_4_pFEB_L1DDC_1_L1DDC_L4_s-pFE1-1_3m;3m;21236;
QL2P_Layer_4_pFEB_L1DDC_1_L1DDC_L4_s-pFE2_1.5m;1.5m;21248;
QL3P_Layer_4_pFEB_L1DDC_1_L1DDC_L4_s-pFE3_1m;1.0m;21256;
QL3P_Layer_1_sFEB_L1DDC_1_L1DDC_L1_s-pFE3_1m;1.0m;21257;
QL2P_Layer_1_sFEB_L1DDC_1_L1DDC_L1_s-pFE2_2m;2m;21249;
QL1P_Layer_1_sFEB_L1DDC_2_L1DDC_L1_s-pFE1-2_3m;3m;21238;
QL1P_Layer_1_sFEB_L1DDC_1_L1DDC_L1_s-pFE1-1_3m;3m;21237;
QL1P_Layer_2_pFEB_L1DDC_1_L1DDC_L2_s-pFE1-1_3m;3m;21234;
QL2P_Layer_2_pFEB_L1DDC_1_L1DDC_L2_s-pFE2_1.5m;1.5m;21246;
QL3P_Layer_2_pFEB_L1DDC_1_L1DDC_L2_s-pFE3_1m;1.0m;21254;
# On wedge Trigger Cables
XP-OUT9-LVD6R-3-1-4-QL1P-L2-sFEB_3;4.25m;21268;
XP-OUT10-LVD6R-3-1-5-QL2P-L2-sFEB_3;4.25m;21270;
QL1P_L2_sFEB_4_SR_Router7_J1;3m;21283;
QL2P_L2_sFEB_4_SR_Router7_J2;3m;21285;
XP-OUT11-LVD6R-3-1-6-QL3P-L2-sFEB_3;3m;21272;
QL3P_L2_sFEB_4_SR_Router7_J3;3m;21287;
XP-OUT3-LVD6R-3-2-4-QL1P-L4-sFEB_3;4.25m;21267;
XP-OUT4-LVD6R-3-2-5-QL2P-L4-sFEB_3;4.25m;21269;
QL1P_L4_sFEB_4_SR_Router8_J1;3m;21282;
QL2P_L4_sFEB_4_SR_Router8_J2;3m;21284;
XP-OUT5-LVD6R-3-2-6-QL3P-L4-sFEB_3;3m;21271;
QL3P_L4_sFEB_4_SR_Router8_J3;3m;21286;
XP-OUT0-LVD6R-2-2-4-QL1P-L3-sFEB_3;4.25m;21261;
XP-OUT1-LVD6R-2-2-5-QL2P-L3-sFEB_3;4.25m;21263;
QL1P_L3_sFEB_4_SR_Router4_J1;3m;21276;
QL2P_L3_sFEB_4_SR_Router4_J2;3m;21278;
XP-OUT2-LVD6R-2-2-6-QL3P-L3-sFEB_3;3m;21265;
QL3P_L3_sFEB_4_SR_Router4_J3;3m;21280;
XP-OUT6-LVD6R-2-1-4-QL1P-L1-sFEB_3;4.25m;21262;
XP-OUT7-LVD6R-2-1-5-QL2P-L1-sFEB_3;4.25m;21264;
QL1P_L1_sFEB_4_SR_Router3_J1;3m;21277;
QL2P_L1_sFEB_4_SR_Router3_J2;3m;21279;
XP-OUT8-LVD6R-2-1-6-QL3P-L1-sFEB_3;3m;21266;
QL3P_L1_sFEB_4_SR_Router3_J3;3m;21281;
pFEB_2_QL1P_L2L4_QL2P_L2L4_SRepeater_PT_IN1;2.5/1.5m breakout;21273;
pFEB_2_QL3P_L1L2L3L4_PT_IN2;4m breakout;21274;
pFEB_2_QL1P_L1L3_QL2P_L1L3_SRepeater_PT_IN4;2.5/1.5m breakout;21275;
# Off wedge Trigger Cables
pFEB_2_QL1P_L1L3_QL2P_L1L3_SRepeater_PT_IN4;3m;21301;20MNESR1RXXXXX
QL1P_L4_sFEB_4_SR_Router8_J1;3m;21308;20MNESR1RXXXXX
QL1P_L2_sFEB_4_SR_Router7_J1;3m;21309;20MNESR1RXXXXX
QL2P_L4_sFEB_4_SR_Router8_J2;3m;21310;20MNESR1RXXXXX
QL2P_L2_sFEB_4_SR_Router7_J2;3m;21311;20MNESR1RXXXXX
QL3P_L4_sFEB_4_SR_Router8_J3;3m;21312;20MNESR1RXXXXX
QL3P_L2_sFEB_4_SR_Router7_J3;3m;21313;20MNESR1RXXXXX
pFEB_2_QL1P_L2L4_QL2P_L2L4_SRepeater_PT_IN1;3m;21300;20MNESR1RXXXXX
QL1P_L3_sFEB_4_SR_Router4_J1;3m;21302;20MNESR1RXXXXX
QL1P_L1_sFEB_4_SR_Router3_J1;3m;21303;20MNESR1RXXXXX
QL2P_L3_sFEB_4_SR_Router4_J2;3m;21304;20MNESR1RXXXXX
QL2P_L1_sFEB_4_SR_Router3_J2;3m;21305;20MNESR1RXXXXX
QL3P_L3_sFEB_4_SR_Router4_J3;3m;21306;20MNESR1RXXXXX
QL3P_L1_sFEB_4_SR_Router3_J3;3m;21307;20MNESR1RXXXXX
XP-OUT3-LVD6R-3-2-4-QL1P-L4-sFEB_3;2m;21294;
XP-OUT9-LVD6R-3-1-4-QL1P-L2-sFEB_3;2m;21295;
XP-OUT4-LVD6R-3-2-5-QL2P-L4-sFEB_3;2m;21296;
XP-OUT10-LVD6R-3-1-5-QL2P-L2-sFEB_3;2m;21297;
XP-OUT5-LVD6R-3-2-6-QL3P-L4-sFEB_3;2m;21298;
XP-OUT11-LVD6R-3-1-6-QL3P-L2-sFEB_3;2m;21299;
XP-OUT0-LVD6R-2-2-4-QL1P-L3-sFEB_3;2m;21288;
XP-OUT6-LVD6R-2-1-4-QL1P-L1-sFEB_3;2m;21289;
XP-OUT1-LVD6R-2-2-5-QL2P-L3-sFEB_3;2m;21290;
XP-OUT7-LVD6R-2-1-5-QL2P-L1-sFEB_3;2m;21291;
XP-OUT2-LVD6R-2-2-6-QL3P-L3-sFEB_3;2m;21292;
XP-OUT8-LVD6R-2-1-6-QL3P-L1-sFEB_3;2m;21293;
