
Cable;Length;SN;Repeater SN
# On wedge L1DDC Cables
QL3P_Layer_2_sFEB_L1DDC_1_L1DDC_L2_s-pFE3_1m;1.0m;22068;
QL2P_Layer_2_sFEB_L1DDC_1_L1DDC_L2_s-pFE2_2m;2m;22060;
QL1P_Layer_2_sFEB_L1DDC_2_L1DDC_L2_s-pFE1-2_3m;3m;22050;
QL1P_Layer_2_sFEB_L1DDC_1_L1DDC_L2_s-pFE1-1_3m;3m;22049;
QL1P_Layer_1_pFEB_L1DDC_1_L1DDC_L1_s-pFE1-1_3m;3m;22043;
QL2P_Layer_1_pFEB_L1DDC_1_L1DDC_L1_s-pFE2_1.5m;1.5m;22055;
QL3P_Layer_1_pFEB_L1DDC_1_L1DDC_L1_s-pFE3_1m;1.0m;22063;
QL3P_Layer_4_sFEB_L1DDC_1_L1DDC_L4_s-pFE3_1m;1.0m;22070;
QL2P_Layer_4_sFEB_L1DDC_1_L1DDC_L4_s-pFE2_2m;2m;22062;
QL1P_Layer_4_sFEB_L1DDC_2_L1DDC_L4_s-pFE1-2_3m;3m;22054;
QL1P_Layer_4_sFEB_L1DDC_1_L1DDC_L4_s-pFE1-1_3m;3m;22053;
QL1P_Layer_3_pFEB_L1DDC_1_L1DDC_L3_s-pFE1-1_3m;3m;22045;
QL2P_Layer_3_pFEB_L1DDC_1_L1DDC_L3_s-pFE2_1.5m;1.5m;22057;
QL3P_Layer_3_pFEB_L1DDC_1_L1DDC_L3_s-pFE3_1m;1.0m;22065;
QL3P_Layer_3_sFEB_L1DDC_1_L1DDC_L3_s-pFE3_1m;1.0m;22069;
QL2P_Layer_3_sFEB_L1DDC_1_L1DDC_L3_s-pFE2_2m;2m;22061;
QL1P_Layer_3_sFEB_L1DDC_2_L1DDC_L3_s-pFE1-2_3m;3m;22052;
QL1P_Layer_3_sFEB_L1DDC_1_L1DDC_L3_s-pFE1-1_3m;3m;22051;
QL1P_Layer_4_pFEB_L1DDC_1_L1DDC_L4_s-pFE1-1_3m;3m;22046;
QL2P_Layer_4_pFEB_L1DDC_1_L1DDC_L4_s-pFE2_1.5m;1.5m;22058;
QL3P_Layer_4_pFEB_L1DDC_1_L1DDC_L4_s-pFE3_1m;1.0m;22066;
QL3P_Layer_1_sFEB_L1DDC_1_L1DDC_L1_s-pFE3_1m;1.0m;22067;
QL2P_Layer_1_sFEB_L1DDC_1_L1DDC_L1_s-pFE2_2m;2m;22059;
QL1P_Layer_1_sFEB_L1DDC_2_L1DDC_L1_s-pFE1-2_3m;3m;22048;
QL1P_Layer_1_sFEB_L1DDC_1_L1DDC_L1_s-pFE1-1_3m;3m;22047;
QL1P_Layer_2_pFEB_L1DDC_1_L1DDC_L2_s-pFE1-1_3m;3m;22044;
QL2P_Layer_2_pFEB_L1DDC_1_L1DDC_L2_s-pFE2_1.5m;1.5m;22056;
QL3P_Layer_2_pFEB_L1DDC_1_L1DDC_L2_s-pFE3_1m;1.0m;22064;
# On wedge Trigger Cables
XP-OUT9-LVD6R-3-1-4-QL1P-L2-sFEB_3;4.25m;22078;
XP-OUT10-LVD6R-3-1-5-QL2P-L2-sFEB_3;4.25m;22080;
QL1P_L2_sFEB_4_SR_Router7_J1;3m;22093;
QL2P_L2_sFEB_4_SR_Router7_J2;3m;22095;
XP-OUT11-LVD6R-3-1-6-QL3P-L2-sFEB_3;3m;22082;
QL3P_L2_sFEB_4_SR_Router7_J3;3m;22097;
XP-OUT3-LVD6R-3-2-4-QL1P-L4-sFEB_3;4.25m;22077;
XP-OUT4-LVD6R-3-2-5-QL2P-L4-sFEB_3;4.25m;22079;
QL1P_L4_sFEB_4_SR_Router8_J1;3m;22092;
QL2P_L4_sFEB_4_SR_Router8_J2;3m;22094;
XP-OUT5-LVD6R-3-2-6-QL3P-L4-sFEB_3;3m;22081;
QL3P_L4_sFEB_4_SR_Router8_J3;3m;22096;
XP-OUT0-LVD6R-2-2-4-QL1P-L3-sFEB_3;4.25m;22071;
XP-OUT1-LVD6R-2-2-5-QL2P-L3-sFEB_3;4.25m;22073;
QL1P_L3_sFEB_4_SR_Router4_J1;3m;22086;
QL2P_L3_sFEB_4_SR_Router4_J2;3m;22088;
XP-OUT2-LVD6R-2-2-6-QL3P-L3-sFEB_3;3m;22075;
QL3P_L3_sFEB_4_SR_Router4_J3;3m;22090;
XP-OUT6-LVD6R-2-1-4-QL1P-L1-sFEB_3;4.25m;22072;
XP-OUT7-LVD6R-2-1-5-QL2P-L1-sFEB_3;4.25m;22074;
QL1P_L1_sFEB_4_SR_Router3_J1;3m;22087;
QL2P_L1_sFEB_4_SR_Router3_J2;3m;22089;
XP-OUT8-LVD6R-2-1-6-QL3P-L1-sFEB_3;3m;22076;
QL3P_L1_sFEB_4_SR_Router3_J3;3m;22091;
pFEB_2_QL1P_L2L4_QL2P_L2L4_SRepeater_PT_IN1;2.5/1.5m breakout;22083;
pFEB_2_QL3P_L1L2L3L4_PT_IN2;4m breakout;22084;
pFEB_2_QL1P_L1L3_QL2P_L1L3_SRepeater_PT_IN4;2.5/1.5m breakout;22085;
# Off wedge Trigger Cables
pFEB_2_QL1P_L1L3_QL2P_L1L3_SRepeater_PT_IN4;3m;22111;20MNESR1RXXXXX
QL1P_L4_sFEB_4_SR_Router8_J1;3m;22118;20MNESR1RXXXXX
QL1P_L2_sFEB_4_SR_Router7_J1;3m;22119;20MNESR1RXXXXX
QL2P_L4_sFEB_4_SR_Router8_J2;3m;22120;20MNESR1RXXXXX
QL2P_L2_sFEB_4_SR_Router7_J2;3m;22121;20MNESR1RXXXXX
QL3P_L4_sFEB_4_SR_Router8_J3;3m;22122;20MNESR1RXXXXX
QL3P_L2_sFEB_4_SR_Router7_J3;3m;22123;20MNESR1RXXXXX
pFEB_2_QL1P_L2L4_QL2P_L2L4_SRepeater_PT_IN1;3m;22110;20MNESR1RXXXXX
QL1P_L3_sFEB_4_SR_Router4_J1;3m;22112;20MNESR1RXXXXX
QL1P_L1_sFEB_4_SR_Router3_J1;3m;22113;20MNESR1RXXXXX
QL2P_L3_sFEB_4_SR_Router4_J2;3m;22114;20MNESR1RXXXXX
QL2P_L1_sFEB_4_SR_Router3_J2;3m;22115;20MNESR1RXXXXX
QL3P_L3_sFEB_4_SR_Router4_J3;3m;22116;20MNESR1RXXXXX
QL3P_L1_sFEB_4_SR_Router3_J3;3m;22117;20MNESR1RXXXXX
XP-OUT3-LVD6R-3-2-4-QL1P-L4-sFEB_3;2m;22104;
XP-OUT9-LVD6R-3-1-4-QL1P-L2-sFEB_3;2m;22105;
XP-OUT4-LVD6R-3-2-5-QL2P-L4-sFEB_3;2m;22106;
XP-OUT10-LVD6R-3-1-5-QL2P-L2-sFEB_3;2m;22107;
XP-OUT5-LVD6R-3-2-6-QL3P-L4-sFEB_3;2m;22108;
XP-OUT11-LVD6R-3-1-6-QL3P-L2-sFEB_3;2m;22109;
XP-OUT0-LVD6R-2-2-4-QL1P-L3-sFEB_3;2m;22098;
XP-OUT6-LVD6R-2-1-4-QL1P-L1-sFEB_3;2m;22099;
XP-OUT1-LVD6R-2-2-5-QL2P-L3-sFEB_3;2m;22100;
XP-OUT7-LVD6R-2-1-5-QL2P-L1-sFEB_3;2m;22101;
XP-OUT2-LVD6R-2-2-6-QL3P-L3-sFEB_3;2m;22102;
XP-OUT8-LVD6R-2-1-6-QL3P-L1-sFEB_3;2m;22103;
