
Cable;Length;SN;Repeater SN
# On wedge L1DDC Cables
QL3P_Layer_2_sFEB_L1DDC_1_L1DDC_L2_s-pFE3_1m;1.0m;22392;
QL2P_Layer_2_sFEB_L1DDC_1_L1DDC_L2_s-pFE2_2m;2m;22384;
QL1P_Layer_2_sFEB_L1DDC_2_L1DDC_L2_s-pFE1-2_3m;3m;22374;
QL1P_Layer_2_sFEB_L1DDC_1_L1DDC_L2_s-pFE1-1_3m;3m;22373;
QL1P_Layer_1_pFEB_L1DDC_1_L1DDC_L1_s-pFE1-1_3m;3m;22367;
QL2P_Layer_1_pFEB_L1DDC_1_L1DDC_L1_s-pFE2_1.5m;1.5m;22379;
QL3P_Layer_1_pFEB_L1DDC_1_L1DDC_L1_s-pFE3_1m;1.0m;22387;
QL3P_Layer_4_sFEB_L1DDC_1_L1DDC_L4_s-pFE3_1m;1.0m;22394;
QL2P_Layer_4_sFEB_L1DDC_1_L1DDC_L4_s-pFE2_2m;2m;22386;
QL1P_Layer_4_sFEB_L1DDC_2_L1DDC_L4_s-pFE1-2_3m;3m;22378;
QL1P_Layer_4_sFEB_L1DDC_1_L1DDC_L4_s-pFE1-1_3m;3m;22377;
QL1P_Layer_3_pFEB_L1DDC_1_L1DDC_L3_s-pFE1-1_3m;3m;22369;
QL2P_Layer_3_pFEB_L1DDC_1_L1DDC_L3_s-pFE2_1.5m;1.5m;22381;
QL3P_Layer_3_pFEB_L1DDC_1_L1DDC_L3_s-pFE3_1m;1.0m;22389;
QL3P_Layer_3_sFEB_L1DDC_1_L1DDC_L3_s-pFE3_1m;1.0m;22393;
QL2P_Layer_3_sFEB_L1DDC_1_L1DDC_L3_s-pFE2_2m;2m;22385;
QL1P_Layer_3_sFEB_L1DDC_2_L1DDC_L3_s-pFE1-2_3m;3m;22376;
QL1P_Layer_3_sFEB_L1DDC_1_L1DDC_L3_s-pFE1-1_3m;3m;22375;
QL1P_Layer_4_pFEB_L1DDC_1_L1DDC_L4_s-pFE1-1_3m;3m;22370;
QL2P_Layer_4_pFEB_L1DDC_1_L1DDC_L4_s-pFE2_1.5m;1.5m;22382;
QL3P_Layer_4_pFEB_L1DDC_1_L1DDC_L4_s-pFE3_1m;1.0m;22390;
QL3P_Layer_1_sFEB_L1DDC_1_L1DDC_L1_s-pFE3_1m;1.0m;22391;
QL2P_Layer_1_sFEB_L1DDC_1_L1DDC_L1_s-pFE2_2m;2m;22383;
QL1P_Layer_1_sFEB_L1DDC_2_L1DDC_L1_s-pFE1-2_3m;3m;22372;
QL1P_Layer_1_sFEB_L1DDC_1_L1DDC_L1_s-pFE1-1_3m;3m;22371;
QL1P_Layer_2_pFEB_L1DDC_1_L1DDC_L2_s-pFE1-1_3m;3m;22368;
QL2P_Layer_2_pFEB_L1DDC_1_L1DDC_L2_s-pFE2_1.5m;1.5m;22380;
QL3P_Layer_2_pFEB_L1DDC_1_L1DDC_L2_s-pFE3_1m;1.0m;22388;
# On wedge Trigger Cables
XP-OUT9-LVD6R-3-1-4-QL1P-L2-sFEB_3;4.25m;22402;
XP-OUT10-LVD6R-3-1-5-QL2P-L2-sFEB_3;4.25m;22404;
QL1P_L2_sFEB_4_SR_Router7_J1;3m;22417;
QL2P_L2_sFEB_4_SR_Router7_J2;3m;22419;
XP-OUT11-LVD6R-3-1-6-QL3P-L2-sFEB_3;3m;22406;
QL3P_L2_sFEB_4_SR_Router7_J3;3m;22421;
XP-OUT3-LVD6R-3-2-4-QL1P-L4-sFEB_3;4.25m;22401;
XP-OUT4-LVD6R-3-2-5-QL2P-L4-sFEB_3;4.25m;22403;
QL1P_L4_sFEB_4_SR_Router8_J1;3m;22416;
QL2P_L4_sFEB_4_SR_Router8_J2;3m;22418;
XP-OUT5-LVD6R-3-2-6-QL3P-L4-sFEB_3;3m;22405;
QL3P_L4_sFEB_4_SR_Router8_J3;3m;22420;
XP-OUT0-LVD6R-2-2-4-QL1P-L3-sFEB_3;4.25m;22395;
XP-OUT1-LVD6R-2-2-5-QL2P-L3-sFEB_3;4.25m;22397;
QL1P_L3_sFEB_4_SR_Router4_J1;3m;22410;
QL2P_L3_sFEB_4_SR_Router4_J2;3m;22412;
XP-OUT2-LVD6R-2-2-6-QL3P-L3-sFEB_3;3m;22399;
QL3P_L3_sFEB_4_SR_Router4_J3;3m;22414;
XP-OUT6-LVD6R-2-1-4-QL1P-L1-sFEB_3;4.25m;22396;
XP-OUT7-LVD6R-2-1-5-QL2P-L1-sFEB_3;4.25m;22398;
QL1P_L1_sFEB_4_SR_Router3_J1;3m;22411;
QL2P_L1_sFEB_4_SR_Router3_J2;3m;22413;
XP-OUT8-LVD6R-2-1-6-QL3P-L1-sFEB_3;3m;22400;
QL3P_L1_sFEB_4_SR_Router3_J3;3m;22415;
pFEB_2_QL1P_L2L4_QL2P_L2L4_SRepeater_PT_IN1;2.5/1.5m breakout;22407;
pFEB_2_QL3P_L1L2L3L4_PT_IN2;4m breakout;22408;
pFEB_2_QL1P_L1L3_QL2P_L1L3_SRepeater_PT_IN4;2.5/1.5m breakout;22409;
# Off wedge Trigger Cables
pFEB_2_QL1P_L1L3_QL2P_L1L3_SRepeater_PT_IN4;3m;22435;20MNESR1RXXXXX
QL1P_L4_sFEB_4_SR_Router8_J1;3m;22442;20MNESR1RXXXXX
QL1P_L2_sFEB_4_SR_Router7_J1;3m;22443;20MNESR1RXXXXX
QL2P_L4_sFEB_4_SR_Router8_J2;3m;22444;20MNESR1RXXXXX
QL2P_L2_sFEB_4_SR_Router7_J2;3m;22445;20MNESR1RXXXXX
QL3P_L4_sFEB_4_SR_Router8_J3;3m;22446;20MNESR1RXXXXX
QL3P_L2_sFEB_4_SR_Router7_J3;3m;22447;20MNESR1RXXXXX
pFEB_2_QL1P_L2L4_QL2P_L2L4_SRepeater_PT_IN1;3m;22434;20MNESR1RXXXXX
QL1P_L3_sFEB_4_SR_Router4_J1;3m;22436;20MNESR1RXXXXX
QL1P_L1_sFEB_4_SR_Router3_J1;3m;22437;20MNESR1RXXXXX
QL2P_L3_sFEB_4_SR_Router4_J2;3m;22438;20MNESR1RXXXXX
QL2P_L1_sFEB_4_SR_Router3_J2;3m;22439;20MNESR1RXXXXX
QL3P_L3_sFEB_4_SR_Router4_J3;3m;22440;20MNESR1RXXXXX
QL3P_L1_sFEB_4_SR_Router3_J3;3m;22441;20MNESR1RXXXXX
XP-OUT3-LVD6R-3-2-4-QL1P-L4-sFEB_3;2m;22428;
XP-OUT9-LVD6R-3-1-4-QL1P-L2-sFEB_3;2m;22429;
XP-OUT4-LVD6R-3-2-5-QL2P-L4-sFEB_3;2m;22430;
XP-OUT10-LVD6R-3-1-5-QL2P-L2-sFEB_3;2m;22431;
XP-OUT5-LVD6R-3-2-6-QL3P-L4-sFEB_3;2m;22432;
XP-OUT11-LVD6R-3-1-6-QL3P-L2-sFEB_3;2m;22433;
XP-OUT0-LVD6R-2-2-4-QL1P-L3-sFEB_3;2m;22422;
XP-OUT6-LVD6R-2-1-4-QL1P-L1-sFEB_3;2m;22423;
XP-OUT1-LVD6R-2-2-5-QL2P-L3-sFEB_3;2m;22424;
XP-OUT7-LVD6R-2-1-5-QL2P-L1-sFEB_3;2m;22425;
XP-OUT2-LVD6R-2-2-6-QL3P-L3-sFEB_3;2m;22426;
XP-OUT8-LVD6R-2-1-6-QL3P-L1-sFEB_3;2m;22427;
