
Cable;Length;SN;Repeater SN
# On wedge L1DDC Cables
QL3P_Layer_2_sFEB_L1DDC_1_L1DDC_L2_s-pFE3_1m;1.0m;11914;
QL2P_Layer_2_sFEB_L1DDC_1_L1DDC_L2_s-pFE2_2m;2m;11906;
QL1P_Layer_2_sFEB_L1DDC_2_L1DDC_L2_s-pFE1-2_3m;3m;11896;
QL1P_Layer_2_sFEB_L1DDC_1_L1DDC_L2_s-pFE1-1_3m;3m;11895;
QL1P_Layer_1_pFEB_L1DDC_1_L1DDC_L1_s-pFE1-1_3m;3m;11889;
QL2P_Layer_1_pFEB_L1DDC_1_L1DDC_L1_s-pFE2_1.5m;1.5m;11901;
QL3P_Layer_1_pFEB_L1DDC_1_L1DDC_L1_s-pFE3_1m;1.0m;11909;
QL3P_Layer_4_sFEB_L1DDC_1_L1DDC_L4_s-pFE3_1m;1.0m;11916;
QL2P_Layer_4_sFEB_L1DDC_1_L1DDC_L4_s-pFE2_2m;2m;11908;
QL1P_Layer_4_sFEB_L1DDC_2_L1DDC_L4_s-pFE1-2_3m;3m;11900;
QL1P_Layer_4_sFEB_L1DDC_1_L1DDC_L4_s-pFE1-1_3m;3m;11899;
QL1P_Layer_3_pFEB_L1DDC_1_L1DDC_L3_s-pFE1-1_3m;3m;11891;
QL2P_Layer_3_pFEB_L1DDC_1_L1DDC_L3_s-pFE2_1.5m;1.5m;11903;
QL3P_Layer_3_pFEB_L1DDC_1_L1DDC_L3_s-pFE3_1m;1.0m;11911;
QL3P_Layer_3_sFEB_L1DDC_1_L1DDC_L3_s-pFE3_1m;1.0m;11915;
QL2P_Layer_3_sFEB_L1DDC_1_L1DDC_L3_s-pFE2_2m;2m;11907;
QL1P_Layer_3_sFEB_L1DDC_2_L1DDC_L3_s-pFE1-2_3m;3m;11898;
QL1P_Layer_3_sFEB_L1DDC_1_L1DDC_L3_s-pFE1-1_3m;3m;11897;
QL1P_Layer_4_pFEB_L1DDC_1_L1DDC_L4_s-pFE1-1_3m;3m;11892;
QL2P_Layer_4_pFEB_L1DDC_1_L1DDC_L4_s-pFE2_1.5m;1.5m;11904;
QL3P_Layer_4_pFEB_L1DDC_1_L1DDC_L4_s-pFE3_1m;1.0m;11912;
QL3P_Layer_1_sFEB_L1DDC_1_L1DDC_L1_s-pFE3_1m;1.0m;11913;
QL2P_Layer_1_sFEB_L1DDC_1_L1DDC_L1_s-pFE2_2m;2m;11905;
QL1P_Layer_1_sFEB_L1DDC_2_L1DDC_L1_s-pFE1-2_3m;3m;11894;
QL1P_Layer_1_sFEB_L1DDC_1_L1DDC_L1_s-pFE1-1_3m;3m;11893;
QL1P_Layer_2_pFEB_L1DDC_1_L1DDC_L2_s-pFE1-1_3m;3m;11890;
QL2P_Layer_2_pFEB_L1DDC_1_L1DDC_L2_s-pFE2_1.5m;1.5m;11902;
QL3P_Layer_2_pFEB_L1DDC_1_L1DDC_L2_s-pFE3_1m;1.0m;11910;
# On wedge Trigger Cables
XP-OUT9-LVD6R-3-1-4-QL1P-L2-sFEB_3;4.25m;11924;
XP-OUT10-LVD6R-3-1-5-QL2P-L2-sFEB_3;4.25m;11926;
QL1P_L2_sFEB_4_SR_Router7_J1;3m;11939;
QL2P_L2_sFEB_4_SR_Router7_J2;3m;11941;
XP-OUT11-LVD6R-3-1-6-QL3P-L2-sFEB_3;3m;11928;
QL3P_L2_sFEB_4_SR_Router7_J3;3m;11943;
XP-OUT3-LVD6R-3-2-4-QL1P-L4-sFEB_3;4.25m;11923;
XP-OUT4-LVD6R-3-2-5-QL2P-L4-sFEB_3;4.25m;11925;
QL1P_L4_sFEB_4_SR_Router8_J1;3m;11938;
QL2P_L4_sFEB_4_SR_Router8_J2;3m;11940;
XP-OUT5-LVD6R-3-2-6-QL3P-L4-sFEB_3;3m;11927;
QL3P_L4_sFEB_4_SR_Router8_J3;3m;11942;
XP-OUT0-LVD6R-2-2-4-QL1P-L3-sFEB_3;4.25m;11917;
XP-OUT1-LVD6R-2-2-5-QL2P-L3-sFEB_3;4.25m;11919;
QL1P_L3_sFEB_4_SR_Router4_J1;3m;11932;
QL2P_L3_sFEB_4_SR_Router4_J2;3m;11934;
XP-OUT2-LVD6R-2-2-6-QL3P-L3-sFEB_3;3m;11921;
QL3P_L3_sFEB_4_SR_Router4_J3;3m;11936;
XP-OUT6-LVD6R-2-1-4-QL1P-L1-sFEB_3;4.25m;11918;
XP-OUT7-LVD6R-2-1-5-QL2P-L1-sFEB_3;4.25m;11920;
QL1P_L1_sFEB_4_SR_Router3_J1;3m;11933;
QL2P_L1_sFEB_4_SR_Router3_J2;3m;11935;
XP-OUT8-LVD6R-2-1-6-QL3P-L1-sFEB_3;3m;11922;
QL3P_L1_sFEB_4_SR_Router3_J3;3m;11937;
pFEB_2_QL1P_L2L4_QL2P_L2L4_SRepeater_PT_IN1;2.5/1.5m breakout;11929;
pFEB_2_QL3P_L1L2L3L4_PT_IN2;4m breakout;11930;
pFEB_2_QL1P_L1L3_QL2P_L1L3_SRepeater_PT_IN4;2.5/1.5m breakout;11931;
# Off wedge Trigger Cables
pFEB_2_QL1P_L1L3_QL2P_L1L3_SRepeater_PT_IN4;3m;11957;20MNESR1RXXXXX
QL1P_L4_sFEB_4_SR_Router8_J1;3m;11964;20MNESR1RXXXXX
QL1P_L2_sFEB_4_SR_Router7_J1;3m;11965;20MNESR1RXXXXX
QL2P_L4_sFEB_4_SR_Router8_J2;3m;11966;20MNESR1RXXXXX
QL2P_L2_sFEB_4_SR_Router7_J2;3m;11967;20MNESR1RXXXXX
QL3P_L4_sFEB_4_SR_Router8_J3;3m;11968;20MNESR1RXXXXX
QL3P_L2_sFEB_4_SR_Router7_J3;3m;11969;20MNESR1RXXXXX
pFEB_2_QL1P_L2L4_QL2P_L2L4_SRepeater_PT_IN1;3m;11956;20MNESR1RXXXXX
QL1P_L3_sFEB_4_SR_Router4_J1;3m;11958;20MNESR1RXXXXX
QL1P_L1_sFEB_4_SR_Router3_J1;3m;11959;20MNESR1RXXXXX
QL2P_L3_sFEB_4_SR_Router4_J2;3m;11960;20MNESR1RXXXXX
QL2P_L1_sFEB_4_SR_Router3_J2;3m;11961;20MNESR1RXXXXX
QL3P_L3_sFEB_4_SR_Router4_J3;3m;11962;20MNESR1RXXXXX
QL3P_L1_sFEB_4_SR_Router3_J3;3m;11963;20MNESR1RXXXXX
XP-OUT3-LVD6R-3-2-4-QL1P-L4-sFEB_3;2m;11950;
XP-OUT9-LVD6R-3-1-4-QL1P-L2-sFEB_3;2m;11951;
XP-OUT4-LVD6R-3-2-5-QL2P-L4-sFEB_3;2m;11952;
XP-OUT10-LVD6R-3-1-5-QL2P-L2-sFEB_3;2m;11953;
XP-OUT5-LVD6R-3-2-6-QL3P-L4-sFEB_3;2m;11954;
XP-OUT11-LVD6R-3-1-6-QL3P-L2-sFEB_3;2m;11955;
XP-OUT0-LVD6R-2-2-4-QL1P-L3-sFEB_3;2m;11944;
XP-OUT6-LVD6R-2-1-4-QL1P-L1-sFEB_3;2m;11945;
XP-OUT1-LVD6R-2-2-5-QL2P-L3-sFEB_3;2m;11946;
XP-OUT7-LVD6R-2-1-5-QL2P-L1-sFEB_3;2m;11947;
XP-OUT2-LVD6R-2-2-6-QL3P-L3-sFEB_3;2m;11948;
XP-OUT8-LVD6R-2-1-6-QL3P-L1-sFEB_3;2m;11949;
