
Cable;Length;SN;Repeater SN
# On wedge L1DDC Cables
QL3C_Layer_3_sFEB_L1DDC_1_L1DDC_L3_s-pFE3_1m;1.0m;21340;
QL2C_Layer_3_sFEB_L1DDC_1_L1DDC_L3_s-pFE2_2m;2m;21332;
QL1C_Layer_3_sFEB_L1DDC_2_L1DDC_L3_s-pFE1-2_3m;3m;21323;
QL1C_Layer_3_sFEB_L1DDC_1_L1DDC_L3_s-pFE1-1_3m;3m;21322;
QL1C_Layer_4_pFEB_L1DDC_1_L1DDC_L4_s-pFE1-1_3m;3m;21317;
QL2C_Layer_4_pFEB_L1DDC_1_L1DDC_L4_s-pFE2_1.5m;1.5m;21329;
QL3C_Layer_4_pFEB_L1DDC_1_L1DDC_L4_s-pFE3_1m;1.0m;21337;
QL3C_Layer_1_sFEB_L1DDC_1_L1DDC_L1_s-pFE3_1m;1.0m;21338;
QL2C_Layer_1_sFEB_L1DDC_1_L1DDC_L1_s-pFE2_2m;2m;21330;
QL1C_Layer_1_sFEB_L1DDC_2_L1DDC_L1_s-pFE1-2_3m;3m;21319;
QL1C_Layer_1_sFEB_L1DDC_1_L1DDC_L1_s-pFE1-1_3m;3m;21318;
QL1C_Layer_2_pFEB_L1DDC_1_L1DDC_L2_s-pFE1-1_3m;3m;21315;
QL2C_Layer_2_pFEB_L1DDC_1_L1DDC_L2_s-pFE2_1.5m;1.5m;21327;
QL3C_Layer_2_pFEB_L1DDC_1_L1DDC_L2_s-pFE3_1m;1.0m;21335;
QL3C_Layer_2_sFEB_L1DDC_1_L1DDC_L2_s-pFE3_1m;1.0m;21339;
QL2C_Layer_2_sFEB_L1DDC_1_L1DDC_L2_s-pFE2_2m;2m;21331;
QL1C_Layer_2_sFEB_L1DDC_2_L1DDC_L2_s-pFE1-2_3m;3m;21321;
QL1C_Layer_2_sFEB_L1DDC_1_L1DDC_L2_s-pFE1-1_3m;3m;21320;
QL1C_Layer_1_pFEB_L1DDC_1_L1DDC_L1_s-pFE1-1_3m;3m;21314;
QL2C_Layer_1_pFEB_L1DDC_1_L1DDC_L1_s-pFE2_1.5m;1.5m;21326;
QL3C_Layer_1_pFEB_L1DDC_1_L1DDC_L1_s-pFE3_1m;1.0m;21334;
QL3C_Layer_4_sFEB_L1DDC_1_L1DDC_L4_s-pFE3_1m;1.0m;21341;
QL2C_Layer_4_sFEB_L1DDC_1_L1DDC_L4_s-pFE2_2m;2m;21333;
QL1C_Layer_4_sFEB_L1DDC_2_L1DDC_L4_s-pFE1-2_3m;3m;21325;
QL1C_Layer_4_sFEB_L1DDC_1_L1DDC_L4_s-pFE1-1_3m;3m;21324;
QL1C_Layer_3_pFEB_L1DDC_1_L1DDC_L3_s-pFE1-1_3m;3m;21316;
QL2C_Layer_3_pFEB_L1DDC_1_L1DDC_L3_s-pFE2_1.5m;1.5m;21328;
QL3C_Layer_3_pFEB_L1DDC_1_L1DDC_L3_s-pFE3_1m;1.0m;21336;
# On wedge Trigger Cables
XP-OUT12-LVD6R-2-2-1-QL1C-L3-sFEB_3;4.25m;21342;
XP-OUT13-LVD6R-2-2-2-QL2C-L3-sFEB_3;4.25m;21344;
QL1C_L3_sFEB_4_SR_Router2_J1;3m;21357;
QL2C_L3_sFEB_4_SR_Router2_J2;3m;21359;
XP-OUT14-LVD6R-2-2-3-QL3C-L3-sFEB_3;3m;21346;
QL3C_L3_sFEB_4_SR_Router2_J3;3m;21361;
XP-OUT18-LVD6R-2-1-1-QL1C-L1-sFEB_3;4.25m;21343;
XP-OUT19-LVD6R-2-1-2-QL2C-L1-sFEB_3;4.25m;21345;
QL1C_L1_sFEB_4_SR_Router1_J1;3m;21358;
QL2C_L1_sFEB_4_SR_Router1_J2;3m;21360;
XP-OUT20-LVD6R-2-1-3-QL3C-L1-sFEB_3;3m;21347;
QL3C_L1_sFEB_4_SR_Router1_J3;3m;21362;
XP-OUT21-LVD6R-3-1-1-QL1C-L2-sFEB_3;4.25m;21349;
XP-OUT22-LVD6R-3-1-2-QL2C-L2-sFEB_3;4.25m;21351;
QL1C_L2_sFEB_4_SR_Router5_J1;3m;21364;
QL2C_L2_sFEB_4_SR_Router5_J2;3m;21366;
XP-OUT23-LVD6R-3-1-3-QL3C-L2-sFEB_3;3m;21353;
QL3C_L2_sFEB_4_SR_Router5_J3;3m;21368;
XP-OUT15-LVD6R-3-2-1-QL1C-L4-sFEB_3;4.25m;21348;
XP-OUT16-LVD6R-3-2-2-QL2C-L4-sFEB_3;4.25m;21350;
QL1C_L4_sFEB_4_SR_Router6_J1;3m;21363;
QL2C_L4_sFEB_4_SR_Router6_J2;3m;21365;
XP-OUT17-LVD6R-3-2-3-QL3C-L4-sFEB_3;3m;21352;
QL3C_L4_sFEB_4_SR_Router6_J3;3m;21367;
pFEB_2_QL1C_L2L4_QL2C_L2L4_SRepeater_PT_IN0;2.5/1.5m breakout;21354;
pFEB_2_QL3C_L1L2L3L4_PT_IN3;4m breakout;21355;
pFEB_2_QL1C_L1L3_QL2C_L1L3_SRepeater_PT_IN5;2.5/1.5m breakout;21356;
# Off wedge Trigger Cables
pFEB_2_QL1C_L2L4_QL2C_L2L4_SRepeater_PT_IN0;3m;21381;20MNESR1RXXXXX
QL1C_L3_sFEB_4_SR_Router2_J1;3m;21383;20MNESR1RXXXXX
QL1C_L1_sFEB_4_SR_Router1_J1;3m;21384;20MNESR1RXXXXX
QL2C_L3_sFEB_4_SR_Router2_J2;3m;21385;20MNESR1RXXXXX
QL2C_L1_sFEB_4_SR_Router1_J2;3m;21386;20MNESR1RXXXXX
QL3C_L3_sFEB_4_SR_Router2_J3;3m;21387;20MNESR1RXXXXX
QL3C_L1_sFEB_4_SR_Router1_J3;3m;21388;20MNESR1RXXXXX
pFEB_2_QL1C_L1L3_QL2C_L1L3_SRepeater_PT_IN5;3m;21382;20MNESR1RXXXXX
QL1C_L4_sFEB_4_SR_Router6_J1;3m;21389;20MNESR1RXXXXX
QL1C_L2_sFEB_4_SR_Router5_J1;3m;21390;20MNESR1RXXXXX
QL2C_L4_sFEB_4_SR_Router6_J2;3m;21391;20MNESR1RXXXXX
QL2C_L2_sFEB_4_SR_Router5_J2;3m;21392;20MNESR1RXXXXX
QL3C_L4_sFEB_4_SR_Router6_J3;3m;21393;20MNESR1RXXXXX
QL3C_L2_sFEB_4_SR_Router5_J3;3m;21394;20MNESR1RXXXXX
XP-OUT12-LVD6R-2-2-1-QL1C-L3-sFEB_3;2m;21369;
XP-OUT18-LVD6R-2-1-1-QL1C-L1-sFEB_3;2m;21370;
XP-OUT13-LVD6R-2-2-2-QL2C-L3-sFEB_3;2m;21371;
XP-OUT19-LVD6R-2-1-2-QL2C-L1-sFEB_3;2m;21372;
XP-OUT14-LVD6R-2-2-3-QL3C-L3-sFEB_3;2m;21373;
XP-OUT20-LVD6R-2-1-3-QL3C-L1-sFEB_3;2m;21374;
XP-OUT15-LVD6R-3-2-1-QL1C-L4-sFEB_3;2m;21375;
XP-OUT21-LVD6R-3-1-1-QL1C-L2-sFEB_3;2m;21376;
XP-OUT16-LVD6R-3-2-2-QL2C-L4-sFEB_3;2m;21377;
XP-OUT22-LVD6R-3-1-2-QL2C-L2-sFEB_3;2m;21378;
XP-OUT17-LVD6R-3-2-3-QL3C-L4-sFEB_3;2m;21379;
XP-OUT23-LVD6R-3-1-3-QL3C-L2-sFEB_3;2m;21380;
