
Cable;Length;SN;Repeater SN
# On wedge L1DDC Cables
QL3C_Layer_3_sFEB_L1DDC_1_L1DDC_L3_s-pFE3_1m;1.0m;11186;
QL2C_Layer_3_sFEB_L1DDC_1_L1DDC_L3_s-pFE2_2m;2m;11178;
QL1C_Layer_3_sFEB_L1DDC_2_L1DDC_L3_s-pFE1-2_3m;3m;11169;
QL1C_Layer_3_sFEB_L1DDC_1_L1DDC_L3_s-pFE1-1_3m;3m;11168;
QL1C_Layer_4_pFEB_L1DDC_1_L1DDC_L4_s-pFE1-1_3m;3m;11163;
QL2C_Layer_4_pFEB_L1DDC_1_L1DDC_L4_s-pFE2_1.5m;1.5m;11175;
QL3C_Layer_4_pFEB_L1DDC_1_L1DDC_L4_s-pFE3_1m;1.0m;11183;
QL3C_Layer_1_sFEB_L1DDC_1_L1DDC_L1_s-pFE3_1m;1.0m;11184;
QL2C_Layer_1_sFEB_L1DDC_1_L1DDC_L1_s-pFE2_2m;2m;11176;
QL1C_Layer_1_sFEB_L1DDC_2_L1DDC_L1_s-pFE1-2_3m;3m;11165;
QL1C_Layer_1_sFEB_L1DDC_1_L1DDC_L1_s-pFE1-1_3m;3m;11164;
QL1C_Layer_2_pFEB_L1DDC_1_L1DDC_L2_s-pFE1-1_3m;3m;11161;
QL2C_Layer_2_pFEB_L1DDC_1_L1DDC_L2_s-pFE2_1.5m;1.5m;11173;
QL3C_Layer_2_pFEB_L1DDC_1_L1DDC_L2_s-pFE3_1m;1.0m;11181;
QL3C_Layer_2_sFEB_L1DDC_1_L1DDC_L2_s-pFE3_1m;1.0m;11185;
QL2C_Layer_2_sFEB_L1DDC_1_L1DDC_L2_s-pFE2_2m;2m;11177;
QL1C_Layer_2_sFEB_L1DDC_2_L1DDC_L2_s-pFE1-2_3m;3m;11167;
QL1C_Layer_2_sFEB_L1DDC_1_L1DDC_L2_s-pFE1-1_3m;3m;11166;
QL1C_Layer_1_pFEB_L1DDC_1_L1DDC_L1_s-pFE1-1_3m;3m;11160;
QL2C_Layer_1_pFEB_L1DDC_1_L1DDC_L1_s-pFE2_1.5m;1.5m;11172;
QL3C_Layer_1_pFEB_L1DDC_1_L1DDC_L1_s-pFE3_1m;1.0m;11180;
QL3C_Layer_4_sFEB_L1DDC_1_L1DDC_L4_s-pFE3_1m;1.0m;11187;
QL2C_Layer_4_sFEB_L1DDC_1_L1DDC_L4_s-pFE2_2m;2m;11179;
QL1C_Layer_4_sFEB_L1DDC_2_L1DDC_L4_s-pFE1-2_3m;3m;11171;
QL1C_Layer_4_sFEB_L1DDC_1_L1DDC_L4_s-pFE1-1_3m;3m;11170;
QL1C_Layer_3_pFEB_L1DDC_1_L1DDC_L3_s-pFE1-1_3m;3m;11162;
QL2C_Layer_3_pFEB_L1DDC_1_L1DDC_L3_s-pFE2_1.5m;1.5m;11174;
QL3C_Layer_3_pFEB_L1DDC_1_L1DDC_L3_s-pFE3_1m;1.0m;11182;
# On wedge Trigger Cables
XP-OUT12-LVD6R-2-2-1-QL1C-L3-sFEB_3;4.25m;11188;
XP-OUT13-LVD6R-2-2-2-QL2C-L3-sFEB_3;4.25m;11190;
QL1C_L3_sFEB_4_SR_Router2_J1;3m;11203;
QL2C_L3_sFEB_4_SR_Router2_J2;3m;11205;
XP-OUT14-LVD6R-2-2-3-QL3C-L3-sFEB_3;3m;11192;
QL3C_L3_sFEB_4_SR_Router2_J3;3m;11207;
XP-OUT18-LVD6R-2-1-1-QL1C-L1-sFEB_3;4.25m;11189;
XP-OUT19-LVD6R-2-1-2-QL2C-L1-sFEB_3;4.25m;11191;
QL1C_L1_sFEB_4_SR_Router1_J1;3m;11204;
QL2C_L1_sFEB_4_SR_Router1_J2;3m;11206;
XP-OUT20-LVD6R-2-1-3-QL3C-L1-sFEB_3;3m;11193;
QL3C_L1_sFEB_4_SR_Router1_J3;3m;11208;
XP-OUT21-LVD6R-3-1-1-QL1C-L2-sFEB_3;4.25m;11195;
XP-OUT22-LVD6R-3-1-2-QL2C-L2-sFEB_3;4.25m;11197;
QL1C_L2_sFEB_4_SR_Router5_J1;3m;11210;
QL2C_L2_sFEB_4_SR_Router5_J2;3m;11212;
XP-OUT23-LVD6R-3-1-3-QL3C-L2-sFEB_3;3m;11199;
QL3C_L2_sFEB_4_SR_Router5_J3;3m;11214;
XP-OUT15-LVD6R-3-2-1-QL1C-L4-sFEB_3;4.25m;11194;
XP-OUT16-LVD6R-3-2-2-QL2C-L4-sFEB_3;4.25m;11196;
QL1C_L4_sFEB_4_SR_Router6_J1;3m;11209;
QL2C_L4_sFEB_4_SR_Router6_J2;3m;11211;
XP-OUT17-LVD6R-3-2-3-QL3C-L4-sFEB_3;3m;11198;
QL3C_L4_sFEB_4_SR_Router6_J3;3m;11213;
pFEB_2_QL1C_L2L4_QL2C_L2L4_SRepeater_PT_IN0;2.5/1.5m breakout;11200;
pFEB_2_QL3C_L1L2L3L4_PT_IN3;4m breakout;11201;
pFEB_2_QL1C_L1L3_QL2C_L1L3_SRepeater_PT_IN5;2.5/1.5m breakout;11202;
# Off wedge Trigger Cables
pFEB_2_QL1C_L2L4_QL2C_L2L4_SRepeater_PT_IN0;3m;11227;20MNESR1RXXXXX
QL1C_L3_sFEB_4_SR_Router2_J1;3m;11229;20MNESR1RXXXXX
QL1C_L1_sFEB_4_SR_Router1_J1;3m;11230;20MNESR1RXXXXX
QL2C_L3_sFEB_4_SR_Router2_J2;3m;11231;20MNESR1RXXXXX
QL2C_L1_sFEB_4_SR_Router1_J2;3m;11232;20MNESR1RXXXXX
QL3C_L3_sFEB_4_SR_Router2_J3;3m;11233;20MNESR1RXXXXX
QL3C_L1_sFEB_4_SR_Router1_J3;3m;11234;20MNESR1RXXXXX
pFEB_2_QL1C_L1L3_QL2C_L1L3_SRepeater_PT_IN5;3m;11228;20MNESR1RXXXXX
QL1C_L4_sFEB_4_SR_Router6_J1;3m;11235;20MNESR1RXXXXX
QL1C_L2_sFEB_4_SR_Router5_J1;3m;11236;20MNESR1RXXXXX
QL2C_L4_sFEB_4_SR_Router6_J2;3m;11237;20MNESR1RXXXXX
QL2C_L2_sFEB_4_SR_Router5_J2;3m;11238;20MNESR1RXXXXX
QL3C_L4_sFEB_4_SR_Router6_J3;3m;11239;20MNESR1RXXXXX
QL3C_L2_sFEB_4_SR_Router5_J3;3m;11240;20MNESR1RXXXXX
XP-OUT12-LVD6R-2-2-1-QL1C-L3-sFEB_3;2m;11215;
XP-OUT18-LVD6R-2-1-1-QL1C-L1-sFEB_3;2m;11216;
XP-OUT13-LVD6R-2-2-2-QL2C-L3-sFEB_3;2m;11217;
XP-OUT19-LVD6R-2-1-2-QL2C-L1-sFEB_3;2m;11218;
XP-OUT14-LVD6R-2-2-3-QL3C-L3-sFEB_3;2m;11219;
XP-OUT20-LVD6R-2-1-3-QL3C-L1-sFEB_3;2m;11220;
XP-OUT15-LVD6R-3-2-1-QL1C-L4-sFEB_3;2m;11221;
XP-OUT21-LVD6R-3-1-1-QL1C-L2-sFEB_3;2m;11222;
XP-OUT16-LVD6R-3-2-2-QL2C-L4-sFEB_3;2m;11223;
XP-OUT22-LVD6R-3-1-2-QL2C-L2-sFEB_3;2m;11224;
XP-OUT17-LVD6R-3-2-3-QL3C-L4-sFEB_3;2m;11225;
XP-OUT23-LVD6R-3-1-3-QL3C-L2-sFEB_3;2m;11226;
