
Cable;Length;SN;Repeater SN
# On wedge L1DDC Cables
QS1C_Layer_3_sFEB_L1DDC_1_L1DDC_L3_s-pFE1-1_3m;3m;20702;
QS1C_Layer_3_sFEB_L1DDC_2_L1DDC_L3_s-pFE1-2_3m;3m;20703;
QS2C_Layer_3_sFEB_L1DDC_1_L1DDC_L3_s-pFE2_2m;2m;20712;
QS3C_Layer_3_sFEB_L1DDC_1_L1DDC_L3_s-pFE3_1m;1.0m;20720;
QS1C_Layer_4_pFEB_L1DDC_1_L1DDC_L4_s-pFE1-1_3m;3m;20697;
QS2C_Layer_4_pFEB_L1DDC_1_L1DDC_L4_s-pFE2_1.5m;1.5m;20709;
QS3C_Layer_4_pFEB_L1DDC_1_L1DDC_L4_s-pFE3_1m;1.0m;20717;
QS1C_Layer_2_pFEB_L1DDC_1_L1DDC_L2_s-pFE1-1_3m;3m;20695;
QS2C_Layer_2_pFEB_L1DDC_1_L1DDC_L2_s-pFE2_1.5m;1.5m;20707;
QS3C_Layer_2_pFEB_L1DDC_1_L1DDC_L2_s-pFE3_1m;1.0m;20715;
QS1C_Layer_1_sFEB_L1DDC_1_L1DDC_L1_s-pFE1-1_3m;3m;20698;
QS1C_Layer_1_sFEB_L1DDC_2_L1DDC_L1_s-pFE1-2_3m;3m;20699;
QS2C_Layer_1_sFEB_L1DDC_1_L1DDC_L1_s-pFE2_2m;2m;20710;
QS3C_Layer_1_sFEB_L1DDC_1_L1DDC_L1_s-pFE3_1m;1.0m;20718;
QS1C_Layer_3_pFEB_L1DDC_1_L1DDC_L3_s-pFE1-1_3m;3m;20696;
QS2C_Layer_3_pFEB_L1DDC_1_L1DDC_L3_s-pFE2_1.5m;1.5m;20708;
QS3C_Layer_3_pFEB_L1DDC_1_L1DDC_L3_s-pFE3_1m;1.0m;20716;
QS1C_Layer_4_sFEB_L1DDC_1_L1DDC_L4_s-pFE1-1_3m;3m;20704;
QS1C_Layer_4_sFEB_L1DDC_2_L1DDC_L4_s-pFE1-2_3m;3m;20705;
QS2C_Layer_4_sFEB_L1DDC_1_L1DDC_L4_s-pFE2_2m;2m;20713;
QS3C_Layer_4_sFEB_L1DDC_1_L1DDC_L4_s-pFE3_1m;1.0m;20721;
QS1C_Layer_2_sFEB_L1DDC_1_L1DDC_L2_s-pFE1-1_3m;3m;20700;
QS1C_Layer_2_sFEB_L1DDC_2_L1DDC_L2_s-pFE1-2_3m;3m;20701;
QS2C_Layer_2_sFEB_L1DDC_1_L1DDC_L2_s-pFE2_2m;2m;20711;
QS3C_Layer_2_sFEB_L1DDC_1_L1DDC_L2_s-pFE3_1m;1.0m;20719;
QS1C_Layer_1_pFEB_L1DDC_1_L1DDC_L1_s-pFE1-1_3m;3m;20694;
QS2C_Layer_1_pFEB_L1DDC_1_L1DDC_L1_s-pFE2_1.5m;1.5m;20706;
QS3C_Layer_1_pFEB_L1DDC_1_L1DDC_L1_s-pFE3_1m;1.0m;20714;
# On wedge Trigger Cables
XP-OUT14-LVD6R-4-2-3-QS3C-L3-sFEB_3;3m;20732;
QS3C_L3_sFEB_4_SR_Router2_J3;3m;20747;
XP-OUT13-LVD6R-4-2-2-QS2C-L3-sFEB_3;3.5m;20728;
QS2C_L3_sFEB_4_SR_Router2_J2;3m;20743;
XP-OUT12-LVD6R-4-2-1-QS1C-L3-sFEB_3;3.5m;20724;
QS1C_L3_sFEB_4_SR_Router2_J1;3m;20739;
XP-OUT20-LVD6R-4-1-3-QS3C-L1-sFEB_3;3m;20730;
QS3C_L1_sFEB_4_SR_Router1_J3;3m;20745;
XP-OUT19-LVD6R-4-1-2-QS2C-L1-sFEB_3;3.5m;20726;
QS2C_L1_sFEB_4_SR_Router1_J2;3m;20741;
XP-OUT18-LVD6R-4-1-1-QS1C-L1-sFEB_3;3.5m;20722;
QS1C_L1_sFEB_4_SR_Router1_J1;3m;20737;
XP-OUT17-LVD6R-1-2-3-QS3C-L4-sFEB_3;3m;20733;
QS3C_L4_sFEB_4_SR_Router6_J3;3m;20748;
XP-OUT16-LVD6R-1-2-2-QS2C-L4-sFEB_3;3.5m;20729;
QS2C_L4_sFEB_4_SR_Router6_J2;3m;20744;
XP-OUT15-LVD6R-1-2-1-QS1C-L4-sFEB_3;3.5m;20725;
QS1C_L4_sFEB_4_SR_Router6_J1;3m;20740;
XP-OUT23-LVD6R-1-1-3-QS3C-L2-sFEB_3;3m;20731;
QS3C_L2_sFEB_4_SR_Router5_J3;3m;20746;
XP-OUT22-LVD6R-1-1-2-QS2C-L2-sFEB_3;3.5m;20727;
QS2C_L2_sFEB_4_SR_Router5_J2;3m;20742;
XP-OUT21-LVD6R-1-1-1-QS1C-L2-sFEB_3;3.5m;20723;
QS1C_L2_sFEB_4_SR_Router5_J1;3m;20738;
pFEB_2_QS1C_L2L4_QS2C_L2L4_SRepeater_PT_IN0;2.5/1.5m breakout;20734;
pFEB_2_QS3C_L1L2L3L4_PT_IN3;4m breakout;20735;
pFEB_2_QS1C_L1L3_QS2C_L1L3_SRepeater_PT_IN5;2.5/1.5m breakout;20736;
# Off wedge Trigger Cables
pFEB_2_QS1C_L2L4_QS2C_L2L4_SRepeater_PT_IN0;3m;20761;20MNESR1RXXXXX
QS1C_L1_sFEB_4_SR_Router1_J1;3m;20763;20MNESR1RXXXXX
QS1C_L3_sFEB_4_SR_Router2_J1;3m;20765;20MNESR1RXXXXX
QS2C_L1_sFEB_4_SR_Router1_J2;3m;20767;20MNESR1RXXXXX
QS2C_L3_sFEB_4_SR_Router2_J2;3m;20769;20MNESR1RXXXXX
pFEB_2_QS1C_L1L3_QS2C_L1L3_SRepeater_PT_IN5;3m;20762;20MNESR1RXXXXX
QS1C_L2_sFEB_4_SR_Router5_J1;3m;20764;20MNESR1RXXXXX
QS1C_L4_sFEB_4_SR_Router6_J1;3m;20766;20MNESR1RXXXXX
QS2C_L2_sFEB_4_SR_Router5_J2;3m;20768;20MNESR1RXXXXX
QS2C_L4_sFEB_4_SR_Router6_J2;3m;20770;20MNESR1RXXXXX
XP-OUT18-LVD6R-4-1-1-QS1C-L1-sFEB_3;2.5m;20749;
XP-OUT12-LVD6R-4-2-1-QS1C-L3-sFEB_3;2.5m;20751;
XP-OUT19-LVD6R-4-1-2-QS2C-L1-sFEB_3;2.5m;20753;
XP-OUT13-LVD6R-4-2-2-QS2C-L3-sFEB_3;2.5m;20755;
XP-OUT20-LVD6R-4-1-3-QS3C-L1-sFEB_3;3m;20757;
XP-OUT14-LVD6R-4-2-3-QS3C-L3-sFEB_3;3m;20759;
XP-OUT21-LVD6R-1-1-1-QS1C-L2-sFEB_3;2.5m;20750;
XP-OUT15-LVD6R-1-2-1-QS1C-L4-sFEB_3;2.5m;20752;
XP-OUT22-LVD6R-1-1-2-QS2C-L2-sFEB_3;2.5m;20754;
XP-OUT16-LVD6R-1-2-2-QS2C-L4-sFEB_3;2.5m;20756;
XP-OUT23-LVD6R-1-1-3-QS3C-L2-sFEB_3;3m;20758;
XP-OUT17-LVD6R-1-2-3-QS3C-L4-sFEB_3;3m;20760;
