
Cable;Length;SN;Repeater SN
# On wedge L1DDC Cables
QS1C_Layer_3_sFEB_L1DDC_1_L1DDC_L3_s-pFE1-1_3m;3m;12383;
QS1C_Layer_3_sFEB_L1DDC_2_L1DDC_L3_s-pFE1-2_3m;3m;12384;
QS2C_Layer_3_sFEB_L1DDC_1_L1DDC_L3_s-pFE2_2m;2m;12393;
QS3C_Layer_3_sFEB_L1DDC_1_L1DDC_L3_s-pFE3_1m;1.0m;12401;
QS1C_Layer_4_pFEB_L1DDC_1_L1DDC_L4_s-pFE1-1_3m;3m;12378;
QS2C_Layer_4_pFEB_L1DDC_1_L1DDC_L4_s-pFE2_1.5m;1.5m;12390;
QS3C_Layer_4_pFEB_L1DDC_1_L1DDC_L4_s-pFE3_1m;1.0m;12398;
QS1C_Layer_2_pFEB_L1DDC_1_L1DDC_L2_s-pFE1-1_3m;3m;12376;
QS2C_Layer_2_pFEB_L1DDC_1_L1DDC_L2_s-pFE2_1.5m;1.5m;12388;
QS3C_Layer_2_pFEB_L1DDC_1_L1DDC_L2_s-pFE3_1m;1.0m;12396;
QS1C_Layer_1_sFEB_L1DDC_1_L1DDC_L1_s-pFE1-1_3m;3m;12379;
QS1C_Layer_1_sFEB_L1DDC_2_L1DDC_L1_s-pFE1-2_3m;3m;12380;
QS2C_Layer_1_sFEB_L1DDC_1_L1DDC_L1_s-pFE2_2m;2m;12391;
QS3C_Layer_1_sFEB_L1DDC_1_L1DDC_L1_s-pFE3_1m;1.0m;12399;
QS1C_Layer_3_pFEB_L1DDC_1_L1DDC_L3_s-pFE1-1_3m;3m;12377;
QS2C_Layer_3_pFEB_L1DDC_1_L1DDC_L3_s-pFE2_1.5m;1.5m;12389;
QS3C_Layer_3_pFEB_L1DDC_1_L1DDC_L3_s-pFE3_1m;1.0m;12397;
QS1C_Layer_4_sFEB_L1DDC_1_L1DDC_L4_s-pFE1-1_3m;3m;12385;
QS1C_Layer_4_sFEB_L1DDC_2_L1DDC_L4_s-pFE1-2_3m;3m;12386;
QS2C_Layer_4_sFEB_L1DDC_1_L1DDC_L4_s-pFE2_2m;2m;12394;
QS3C_Layer_4_sFEB_L1DDC_1_L1DDC_L4_s-pFE3_1m;1.0m;12402;
QS1C_Layer_2_sFEB_L1DDC_1_L1DDC_L2_s-pFE1-1_3m;3m;12381;
QS1C_Layer_2_sFEB_L1DDC_2_L1DDC_L2_s-pFE1-2_3m;3m;12382;
QS2C_Layer_2_sFEB_L1DDC_1_L1DDC_L2_s-pFE2_2m;2m;12392;
QS3C_Layer_2_sFEB_L1DDC_1_L1DDC_L2_s-pFE3_1m;1.0m;12400;
QS1C_Layer_1_pFEB_L1DDC_1_L1DDC_L1_s-pFE1-1_3m;3m;12375;
QS2C_Layer_1_pFEB_L1DDC_1_L1DDC_L1_s-pFE2_1.5m;1.5m;12387;
QS3C_Layer_1_pFEB_L1DDC_1_L1DDC_L1_s-pFE3_1m;1.0m;12395;
# On wedge Trigger Cables
XP-OUT14-LVD6R-4-2-3-QS3C-L3-sFEB_3;3m;12413;
QS3C_L3_sFEB_4_SR_Router2_J3;3m;12428;
XP-OUT13-LVD6R-4-2-2-QS2C-L3-sFEB_3;3.5m;12409;
QS2C_L3_sFEB_4_SR_Router2_J2;3m;12424;
XP-OUT12-LVD6R-4-2-1-QS1C-L3-sFEB_3;3.5m;12405;
QS1C_L3_sFEB_4_SR_Router2_J1;3m;12420;
XP-OUT20-LVD6R-4-1-3-QS3C-L1-sFEB_3;3m;12411;
QS3C_L1_sFEB_4_SR_Router1_J3;3m;12426;
XP-OUT19-LVD6R-4-1-2-QS2C-L1-sFEB_3;3.5m;12407;
QS2C_L1_sFEB_4_SR_Router1_J2;3m;12422;
XP-OUT18-LVD6R-4-1-1-QS1C-L1-sFEB_3;3.5m;12403;
QS1C_L1_sFEB_4_SR_Router1_J1;3m;12418;
XP-OUT17-LVD6R-1-2-3-QS3C-L4-sFEB_3;3m;12414;
QS3C_L4_sFEB_4_SR_Router6_J3;3m;12429;
XP-OUT16-LVD6R-1-2-2-QS2C-L4-sFEB_3;3.5m;12410;
QS2C_L4_sFEB_4_SR_Router6_J2;3m;12425;
XP-OUT15-LVD6R-1-2-1-QS1C-L4-sFEB_3;3.5m;12406;
QS1C_L4_sFEB_4_SR_Router6_J1;3m;12421;
XP-OUT23-LVD6R-1-1-3-QS3C-L2-sFEB_3;3m;12412;
QS3C_L2_sFEB_4_SR_Router5_J3;3m;12427;
XP-OUT22-LVD6R-1-1-2-QS2C-L2-sFEB_3;3.5m;12408;
QS2C_L2_sFEB_4_SR_Router5_J2;3m;12423;
XP-OUT21-LVD6R-1-1-1-QS1C-L2-sFEB_3;3.5m;12404;
QS1C_L2_sFEB_4_SR_Router5_J1;3m;12419;
pFEB_2_QS1C_L2L4_QS2C_L2L4_SRepeater_PT_IN0;2.5/1.5m breakout;12415;
pFEB_2_QS3C_L1L2L3L4_PT_IN3;4m breakout;12416;
pFEB_2_QS1C_L1L3_QS2C_L1L3_SRepeater_PT_IN5;2.5/1.5m breakout;12417;
# Off wedge Trigger Cables
pFEB_2_QS1C_L2L4_QS2C_L2L4_SRepeater_PT_IN0;3m;12442;20MNESR1RXXXXX
QS1C_L1_sFEB_4_SR_Router1_J1;3m;12444;20MNESR1RXXXXX
QS1C_L3_sFEB_4_SR_Router2_J1;3m;12446;20MNESR1RXXXXX
QS2C_L1_sFEB_4_SR_Router1_J2;3m;12448;20MNESR1RXXXXX
QS2C_L3_sFEB_4_SR_Router2_J2;3m;12450;20MNESR1RXXXXX
pFEB_2_QS1C_L1L3_QS2C_L1L3_SRepeater_PT_IN5;3m;12443;20MNESR1RXXXXX
QS1C_L2_sFEB_4_SR_Router5_J1;3m;12445;20MNESR1RXXXXX
QS1C_L4_sFEB_4_SR_Router6_J1;3m;12447;20MNESR1RXXXXX
QS2C_L2_sFEB_4_SR_Router5_J2;3m;12449;20MNESR1RXXXXX
QS2C_L4_sFEB_4_SR_Router6_J2;3m;12451;20MNESR1RXXXXX
XP-OUT18-LVD6R-4-1-1-QS1C-L1-sFEB_3;2.5m;12430;
XP-OUT12-LVD6R-4-2-1-QS1C-L3-sFEB_3;2.5m;12432;
XP-OUT19-LVD6R-4-1-2-QS2C-L1-sFEB_3;2.5m;12434;
XP-OUT13-LVD6R-4-2-2-QS2C-L3-sFEB_3;2.5m;12436;
XP-OUT20-LVD6R-4-1-3-QS3C-L1-sFEB_3;3m;12438;
XP-OUT14-LVD6R-4-2-3-QS3C-L3-sFEB_3;3m;12440;
XP-OUT21-LVD6R-1-1-1-QS1C-L2-sFEB_3;2.5m;12431;
XP-OUT15-LVD6R-1-2-1-QS1C-L4-sFEB_3;2.5m;12433;
XP-OUT22-LVD6R-1-1-2-QS2C-L2-sFEB_3;2.5m;12435;
XP-OUT16-LVD6R-1-2-2-QS2C-L4-sFEB_3;2.5m;12437;
XP-OUT23-LVD6R-1-1-3-QS3C-L2-sFEB_3;3m;12439;
XP-OUT17-LVD6R-1-2-3-QS3C-L4-sFEB_3;3m;12441;
