
Cable;Length;SN;Repeater SN
# On wedge L1DDC Cables
QS1P_Layer_2_sFEB_L1DDC_1_L1DDC_L2_s-pFE1-1_3m;3m;20161;
QS1P_Layer_2_sFEB_L1DDC_2_L1DDC_L2_s-pFE1-2_3m;3m;20162;
QS2P_Layer_2_sFEB_L1DDC_1_L1DDC_L2_s-pFE2_2m;2m;20172;
QS3P_Layer_2_sFEB_L1DDC_1_L1DDC_L2_s-pFE3_1m;1.0m;20180;
QS1P_Layer_1_pFEB_L1DDC_1_L1DDC_L1_s-pFE1-1_3m;3m;20155;
QS2P_Layer_1_pFEB_L1DDC_1_L1DDC_L1_s-pFE2_1.5m;1.5m;20167;
QS3P_Layer_1_pFEB_L1DDC_1_L1DDC_L1_s-pFE3_1m;1.0m;20175;
QS1P_Layer_3_pFEB_L1DDC_1_L1DDC_L3_s-pFE1-1_3m;3m;20157;
QS2P_Layer_3_pFEB_L1DDC_1_L1DDC_L3_s-pFE2_1.5m;1.5m;20169;
QS3P_Layer_3_pFEB_L1DDC_1_L1DDC_L3_s-pFE3_1m;1.0m;20177;
QS1P_Layer_4_sFEB_L1DDC_1_L1DDC_L4_s-pFE1-1_3m;3m;20165;
QS1P_Layer_4_sFEB_L1DDC_2_L1DDC_L4_s-pFE1-2_3m;3m;20166;
QS2P_Layer_4_sFEB_L1DDC_1_L1DDC_L4_s-pFE2_2m;2m;20174;
QS3P_Layer_4_sFEB_L1DDC_1_L1DDC_L4_s-pFE3_1m;1.0m;20182;
QS1P_Layer_2_pFEB_L1DDC_1_L1DDC_L2_s-pFE1-1_3m;3m;20156;
QS2P_Layer_2_pFEB_L1DDC_1_L1DDC_L2_s-pFE2_1.5m;1.5m;20168;
QS3P_Layer_2_pFEB_L1DDC_1_L1DDC_L2_s-pFE3_1m;1.0m;20176;
QS1P_Layer_1_sFEB_L1DDC_1_L1DDC_L1_s-pFE1-1_3m;3m;20159;
QS1P_Layer_1_sFEB_L1DDC_2_L1DDC_L1_s-pFE1-2_3m;3m;20160;
QS2P_Layer_1_sFEB_L1DDC_1_L1DDC_L1_s-pFE2_2m;2m;20171;
QS3P_Layer_1_sFEB_L1DDC_1_L1DDC_L1_s-pFE3_1m;1.0m;20179;
QS1P_Layer_3_sFEB_L1DDC_1_L1DDC_L3_s-pFE1-1_3m;3m;20163;
QS1P_Layer_3_sFEB_L1DDC_2_L1DDC_L3_s-pFE1-2_3m;3m;20164;
QS2P_Layer_3_sFEB_L1DDC_1_L1DDC_L3_s-pFE2_2m;2m;20173;
QS3P_Layer_3_sFEB_L1DDC_1_L1DDC_L3_s-pFE3_1m;1.0m;20181;
QS1P_Layer_4_pFEB_L1DDC_1_L1DDC_L4_s-pFE1-1_3m;3m;20158;
QS2P_Layer_4_pFEB_L1DDC_1_L1DDC_L4_s-pFE2_1.5m;1.5m;20170;
QS3P_Layer_4_pFEB_L1DDC_1_L1DDC_L4_s-pFE3_1m;1.0m;20178;
# On wedge Trigger Cables
XP-OUT11-LVD6R-1-1-6-QS3P-L2-sFEB_3;3m;20192;
QS3P_L2_sFEB_4_SR_Router7_J3;3m;20207;
XP-OUT10-LVD6R-1-1-5-QS2P-L2-sFEB_3;3.5m;20188;
QS2P_L2_sFEB_4_SR_Router7_J2;3m;20203;
XP-OUT9-LVD6R-1-1-4-QS1P-L2-sFEB_3;3.5m;20184;
QS1P_L2_sFEB_4_SR_Router7_J1;3m;20199;
XP-OUT5-LVD6R-1-2-6-QS3P-L4-sFEB_3;3m;20194;
QS3P_L4_sFEB_4_SR_Router8_J3;3m;20209;
XP-OUT4-LVD6R-1-2-5-QS2P-L4-sFEB_3;3.5m;20190;
QS2P_L4_sFEB_4_SR_Router8_J2;3m;20205;
XP-OUT3-LVD6R-1-2-4-QS1P-L4-sFEB_3;3.5m;20186;
QS1P_L4_sFEB_4_SR_Router8_J1;3m;20201;
XP-OUT8-LVD6R-4-1-6-QS3P-L1-sFEB_3;3m;20191;
QS3P_L1_sFEB_4_SR_Router3_J3;3m;20206;
XP-OUT7-LVD6R-4-1-5-QS2P-L1-sFEB_3;3.5m;20187;
QS2P_L1_sFEB_4_SR_Router3_J2;3m;20202;
XP-OUT6-LVD6R-4-1-4-QS1P-L1-sFEB_3;3.5m;20183;
QS1P_L1_sFEB_4_SR_Router3_J1;3m;20198;
XP-OUT2-LVD6R-4-2-6-QS3P-L3-sFEB_3;3m;20193;
QS3P_L3_sFEB_4_SR_Router4_J3;3m;20208;
XP-OUT1-LVD6R-4-2-5-QS2P-L3-sFEB_3;3.5m;20189;
QS2P_L3_sFEB_4_SR_Router4_J2;3m;20204;
XP-OUT0-LVD6R-4-2-4-QS1P-L3-sFEB_3;3.5m;20185;
QS1P_L3_sFEB_4_SR_Router4_J1;3m;20200;
pFEB_2_QS1P_L2L4_QS2P_L2L4_SRepeater_PT_IN1;2.5/1.5m breakout;20195;
pFEB_2_QS3P_L1L2L3L4_PT_IN2;4m breakout;20196;
pFEB_2_QS1P_L1L3_QS2P_L1L3_SRepeater_PT_IN4;2.5/1.5m breakout;20197;
# Off wedge Trigger Cables
pFEB_2_QS1P_L1L3_QS2P_L1L3_SRepeater_PT_IN4;3m;20223;20MNESR1RXXXXX
QS1P_L2_sFEB_4_SR_Router7_J1;3m;20225;20MNESR1RXXXXX
QS1P_L4_sFEB_4_SR_Router8_J1;3m;20227;20MNESR1RXXXXX
QS2P_L2_sFEB_4_SR_Router7_J2;3m;20229;20MNESR1RXXXXX
QS2P_L4_sFEB_4_SR_Router8_J2;3m;20231;20MNESR1RXXXXX
pFEB_2_QS1P_L2L4_QS2P_L2L4_SRepeater_PT_IN1;3m;20222;20MNESR1RXXXXX
QS1P_L1_sFEB_4_SR_Router3_J1;3m;20224;20MNESR1RXXXXX
QS1P_L3_sFEB_4_SR_Router4_J1;3m;20226;20MNESR1RXXXXX
QS2P_L1_sFEB_4_SR_Router3_J2;3m;20228;20MNESR1RXXXXX
QS2P_L3_sFEB_4_SR_Router4_J2;3m;20230;20MNESR1RXXXXX
XP-OUT9-LVD6R-1-1-4-QS1P-L2-sFEB_3;2.5m;20211;
XP-OUT3-LVD6R-1-2-4-QS1P-L4-sFEB_3;2.5m;20213;
XP-OUT10-LVD6R-1-1-5-QS2P-L2-sFEB_3;2.5m;20215;
XP-OUT4-LVD6R-1-2-5-QS2P-L4-sFEB_3;2.5m;20217;
XP-OUT11-LVD6R-1-1-6-QS3P-L2-sFEB_3;3m;20219;
XP-OUT5-LVD6R-1-2-6-QS3P-L4-sFEB_3;3m;20221;
XP-OUT6-LVD6R-4-1-4-QS1P-L1-sFEB_3;2.5m;20210;
XP-OUT0-LVD6R-4-2-4-QS1P-L3-sFEB_3;2.5m;20212;
XP-OUT7-LVD6R-4-1-5-QS2P-L1-sFEB_3;2.5m;20214;
XP-OUT1-LVD6R-4-2-5-QS2P-L3-sFEB_3;2.5m;20216;
XP-OUT8-LVD6R-4-1-6-QS3P-L1-sFEB_3;3m;20218;
XP-OUT2-LVD6R-4-2-6-QS3P-L3-sFEB_3;3m;20220;
