solid OpenSCAD_Model
  facet normal -1 0 0
    outer loop
      vertex 0 0 0
      vertex 0 120 15
      vertex 0 120 0
    endloop
  endfacet
  facet normal -1 -0 0
    outer loop
      vertex 0 120 15
      vertex 0 0 0
      vertex 0 0 15
    endloop
  endfacet
  facet normal -0 0 1
    outer loop
      vertex 0 120 15
      vertex 15 0 15
      vertex 15 120 15
    endloop
  endfacet
  facet normal 0 0 1
    outer loop
      vertex 15 0 15
      vertex 0 120 15
      vertex 0 0 15
    endloop
  endfacet
  facet normal 0 1 0
    outer loop
      vertex 155 120 15
      vertex 140 120 1
      vertex 140 120 15
    endloop
  endfacet
  facet normal 0 1 0
    outer loop
      vertex 155 120 0
      vertex 135 120 1
      vertex 140 120 1
    endloop
  endfacet
  facet normal 0 1 0
    outer loop
      vertex 135 120 1
      vertex 155 120 0
      vertex 120 120 1
    endloop
  endfacet
  facet normal 0 1 0
    outer loop
      vertex 120 120 1
      vertex 155 120 0
      vertex 115 120 1
    endloop
  endfacet
  facet normal 0 1 0
    outer loop
      vertex 115 120 1
      vertex 155 120 0
      vertex 100 120 1
    endloop
  endfacet
  facet normal 0 1 0
    outer loop
      vertex 100 120 1
      vertex 155 120 0
      vertex 95 120 1
    endloop
  endfacet
  facet normal 0 1 0
    outer loop
      vertex 95 120 1
      vertex 155 120 0
      vertex 80 120 1
    endloop
  endfacet
  facet normal 0 1 0
    outer loop
      vertex 80 120 1
      vertex 155 120 0
      vertex 75 120 1
    endloop
  endfacet
  facet normal 0 1 0
    outer loop
      vertex 75 120 1
      vertex 155 120 0
      vertex 60 120 1
    endloop
  endfacet
  facet normal 0 1 0
    outer loop
      vertex 60 120 1
      vertex 155 120 0
      vertex 55 120 1
    endloop
  endfacet
  facet normal 0 1 0
    outer loop
      vertex 0 120 0
      vertex 55 120 1
      vertex 155 120 0
    endloop
  endfacet
  facet normal 0 1 0
    outer loop
      vertex 55 120 1
      vertex 0 120 0
      vertex 40 120 1
    endloop
  endfacet
  facet normal 0 1 0
    outer loop
      vertex 40 120 1
      vertex 0 120 0
      vertex 35 120 1
    endloop
  endfacet
  facet normal 0 1 0
    outer loop
      vertex 35 120 1
      vertex 0 120 0
      vertex 20 120 1
    endloop
  endfacet
  facet normal 0 1 -0
    outer loop
      vertex 155 120 0
      vertex 140 120 1
      vertex 155 120 15
    endloop
  endfacet
  facet normal 0 1 -0
    outer loop
      vertex 135 120 1
      vertex 120 120 15
      vertex 135 120 15
    endloop
  endfacet
  facet normal 0 1 0
    outer loop
      vertex 120 120 15
      vertex 135 120 1
      vertex 120 120 1
    endloop
  endfacet
  facet normal 0 1 -0
    outer loop
      vertex 115 120 1
      vertex 100 120 15
      vertex 115 120 15
    endloop
  endfacet
  facet normal 0 1 0
    outer loop
      vertex 100 120 15
      vertex 115 120 1
      vertex 100 120 1
    endloop
  endfacet
  facet normal 0 1 -0
    outer loop
      vertex 95 120 1
      vertex 80 120 15
      vertex 95 120 15
    endloop
  endfacet
  facet normal 0 1 0
    outer loop
      vertex 80 120 15
      vertex 95 120 1
      vertex 80 120 1
    endloop
  endfacet
  facet normal 0 1 -0
    outer loop
      vertex 75 120 1
      vertex 60 120 15
      vertex 75 120 15
    endloop
  endfacet
  facet normal 0 1 0
    outer loop
      vertex 60 120 15
      vertex 75 120 1
      vertex 60 120 1
    endloop
  endfacet
  facet normal 0 1 -0
    outer loop
      vertex 55 120 1
      vertex 40 120 15
      vertex 55 120 15
    endloop
  endfacet
  facet normal 0 1 0
    outer loop
      vertex 40 120 15
      vertex 55 120 1
      vertex 40 120 1
    endloop
  endfacet
  facet normal 0 1 -0
    outer loop
      vertex 35 120 1
      vertex 20 120 15
      vertex 35 120 15
    endloop
  endfacet
  facet normal 0 1 0
    outer loop
      vertex 20 120 15
      vertex 35 120 1
      vertex 20 120 1
    endloop
  endfacet
  facet normal 0 1 -0
    outer loop
      vertex 15 120 1
      vertex 0 120 15
      vertex 15 120 15
    endloop
  endfacet
  facet normal 0 1 0
    outer loop
      vertex 15 120 1
      vertex 0 120 0
      vertex 0 120 15
    endloop
  endfacet
  facet normal 0 1 0
    outer loop
      vertex 20 120 1
      vertex 0 120 0
      vertex 15 120 1
    endloop
  endfacet
  facet normal 0 0 -1
    outer loop
      vertex 30 0 0
      vertex 0 0 0
      vertex 30 60 0
    endloop
  endfacet
  facet normal 0 0 -1
    outer loop
      vertex 50 60 0
      vertex 30 60 0
      vertex 50 90 0
    endloop
  endfacet
  facet normal 0 0 -1
    outer loop
      vertex 90 0 0
      vertex 65 0 0
      vertex 90 30 0
    endloop
  endfacet
  facet normal 0 0 -1
    outer loop
      vertex 110 30 0
      vertex 90 30 0
      vertex 110 60 0
    endloop
  endfacet
  facet normal 0 0 -1
    outer loop
      vertex 130 60 0
      vertex 110 60 0
      vertex 130 90 0
    endloop
  endfacet
  facet normal 0 0 -1
    outer loop
      vertex 130 90 0
      vertex 155 120 0
      vertex 155 90 0
    endloop
  endfacet
  facet normal 0 0 -1
    outer loop
      vertex 65 90 0
      vertex 110 60 0
      vertex 90 30 0
    endloop
  endfacet
  facet normal 0 0 -1
    outer loop
      vertex 65 90 0
      vertex 90 30 0
      vertex 65 0 0
    endloop
  endfacet
  facet normal 0 0 -1
    outer loop
      vertex 110 60 0
      vertex 65 90 0
      vertex 130 90 0
    endloop
  endfacet
  facet normal 0 0 -1
    outer loop
      vertex 65 90 0
      vertex 155 120 0
      vertex 130 90 0
    endloop
  endfacet
  facet normal 0 0 -1
    outer loop
      vertex 0 120 0
      vertex 65 90 0
      vertex 50 90 0
    endloop
  endfacet
  facet normal 0 0 -1
    outer loop
      vertex 65 90 0
      vertex 0 120 0
      vertex 155 120 0
    endloop
  endfacet
  facet normal 0 0 -1
    outer loop
      vertex 30 60 0
      vertex 0 120 0
      vertex 50 90 0
    endloop
  endfacet
  facet normal 0 0 -1
    outer loop
      vertex 0 120 0
      vertex 30 60 0
      vertex 0 0 0
    endloop
  endfacet
  facet normal 0 -1 0
    outer loop
      vertex 0 0 15
      vertex 15 0 1
      vertex 15 0 15
    endloop
  endfacet
  facet normal 0 -1 0
    outer loop
      vertex 30 0 0
      vertex 15 0 1
      vertex 0 0 0
    endloop
  endfacet
  facet normal 0 -1 0
    outer loop
      vertex 0 0 0
      vertex 15 0 1
      vertex 0 0 15
    endloop
  endfacet
  facet normal 0 -1 0
    outer loop
      vertex 20 0 1
      vertex 30 0 15
      vertex 20 0 15
    endloop
  endfacet
  facet normal 0 -1 0
    outer loop
      vertex 20 0 1
      vertex 30 0 0
      vertex 30 0 15
    endloop
  endfacet
  facet normal 0 -1 0
    outer loop
      vertex 15 0 1
      vertex 30 0 0
      vertex 20 0 1
    endloop
  endfacet
  facet normal 1 -0 0
    outer loop
      vertex 15 0 15
      vertex 15 120 1
      vertex 15 120 15
    endloop
  endfacet
  facet normal 1 0 0
    outer loop
      vertex 15 120 1
      vertex 15 0 15
      vertex 15 0 1
    endloop
  endfacet
  facet normal -1 0 0
    outer loop
      vertex 20 0 1
      vertex 20 120 15
      vertex 20 120 1
    endloop
  endfacet
  facet normal -1 -0 0
    outer loop
      vertex 20 120 15
      vertex 20 0 1
      vertex 20 0 15
    endloop
  endfacet
  facet normal 0 0 1
    outer loop
      vertex 35 120 15
      vertex 30 60 15
      vertex 35 60 15
    endloop
  endfacet
  facet normal -0 0 1
    outer loop
      vertex 20 120 15
      vertex 30 60 15
      vertex 35 120 15
    endloop
  endfacet
  facet normal 0 0 1
    outer loop
      vertex 20 0 15
      vertex 30 60 15
      vertex 20 120 15
    endloop
  endfacet
  facet normal 0 0 1
    outer loop
      vertex 30 60 15
      vertex 20 0 15
      vertex 30 0 15
    endloop
  endfacet
  facet normal 1 -0 0
    outer loop
      vertex 30 0 15
      vertex 30 60 0
      vertex 30 60 15
    endloop
  endfacet
  facet normal 1 0 0
    outer loop
      vertex 30 60 0
      vertex 30 0 15
      vertex 30 0 0
    endloop
  endfacet
  facet normal 1 -0 0
    outer loop
      vertex 35 60 15
      vertex 35 120 1
      vertex 35 120 15
    endloop
  endfacet
  facet normal 1 0 0
    outer loop
      vertex 35 120 1
      vertex 35 60 15
      vertex 35 60 1
    endloop
  endfacet
  facet normal 0 -1 0
    outer loop
      vertex 30 60 15
      vertex 35 60 1
      vertex 35 60 15
    endloop
  endfacet
  facet normal 0 -1 -0
    outer loop
      vertex 35 60 1
      vertex 30 60 0
      vertex 40 60 1
    endloop
  endfacet
  facet normal 0 -1 0
    outer loop
      vertex 30 60 0
      vertex 35 60 1
      vertex 30 60 15
    endloop
  endfacet
  facet normal 0 -1 0
    outer loop
      vertex 40 60 1
      vertex 50 60 15
      vertex 40 60 15
    endloop
  endfacet
  facet normal 0 -1 0
    outer loop
      vertex 40 60 1
      vertex 50 60 0
      vertex 50 60 15
    endloop
  endfacet
  facet normal 0 -1 0
    outer loop
      vertex 50 60 0
      vertex 40 60 1
      vertex 30 60 0
    endloop
  endfacet
  facet normal -1 0 0
    outer loop
      vertex 40 60 1
      vertex 40 120 15
      vertex 40 120 1
    endloop
  endfacet
  facet normal -1 -0 0
    outer loop
      vertex 40 120 15
      vertex 40 60 1
      vertex 40 60 15
    endloop
  endfacet
  facet normal 0 0 1
    outer loop
      vertex 55 120 15
      vertex 50 90 15
      vertex 55 90 15
    endloop
  endfacet
  facet normal -0 0 1
    outer loop
      vertex 40 120 15
      vertex 50 90 15
      vertex 55 120 15
    endloop
  endfacet
  facet normal 0 0 1
    outer loop
      vertex 40 60 15
      vertex 50 90 15
      vertex 40 120 15
    endloop
  endfacet
  facet normal 0 0 1
    outer loop
      vertex 50 90 15
      vertex 40 60 15
      vertex 50 60 15
    endloop
  endfacet
  facet normal 1 -0 0
    outer loop
      vertex 50 60 15
      vertex 50 90 0
      vertex 50 90 15
    endloop
  endfacet
  facet normal 1 0 0
    outer loop
      vertex 50 90 0
      vertex 50 60 15
      vertex 50 60 0
    endloop
  endfacet
  facet normal 1 -0 0
    outer loop
      vertex 55 90 15
      vertex 55 120 1
      vertex 55 120 15
    endloop
  endfacet
  facet normal 1 0 0
    outer loop
      vertex 55 120 1
      vertex 55 90 15
      vertex 55 90 1
    endloop
  endfacet
  facet normal 0 -1 0
    outer loop
      vertex 50 90 15
      vertex 55 90 1
      vertex 55 90 15
    endloop
  endfacet
  facet normal 0 -1 -0
    outer loop
      vertex 55 90 1
      vertex 50 90 0
      vertex 60 90 1
    endloop
  endfacet
  facet normal 0 -1 0
    outer loop
      vertex 50 90 0
      vertex 55 90 1
      vertex 50 90 15
    endloop
  endfacet
  facet normal 0 -1 0
    outer loop
      vertex 60 90 1
      vertex 65 90 15
      vertex 60 90 15
    endloop
  endfacet
  facet normal 0 -1 0
    outer loop
      vertex 60 90 1
      vertex 65 90 0
      vertex 65 90 15
    endloop
  endfacet
  facet normal 0 -1 0
    outer loop
      vertex 65 90 0
      vertex 60 90 1
      vertex 50 90 0
    endloop
  endfacet
  facet normal -1 0 0
    outer loop
      vertex 60 90 1
      vertex 60 120 15
      vertex 60 120 1
    endloop
  endfacet
  facet normal -1 -0 0
    outer loop
      vertex 60 120 15
      vertex 60 90 1
      vertex 60 90 15
    endloop
  endfacet
  facet normal 0 0 1
    outer loop
      vertex 75 120 15
      vertex 65 90 15
      vertex 75 0 15
    endloop
  endfacet
  facet normal -0 0 1
    outer loop
      vertex 60 120 15
      vertex 65 90 15
      vertex 75 120 15
    endloop
  endfacet
  facet normal 0 0 1
    outer loop
      vertex 65 90 15
      vertex 60 120 15
      vertex 60 90 15
    endloop
  endfacet
  facet normal 0 0 1
    outer loop
      vertex 75 0 15
      vertex 65 90 15
      vertex 65 0 15
    endloop
  endfacet
  facet normal -1 0 0
    outer loop
      vertex 65 0 0
      vertex 65 90 15
      vertex 65 90 0
    endloop
  endfacet
  facet normal -1 -0 0
    outer loop
      vertex 65 90 15
      vertex 65 0 0
      vertex 65 0 15
    endloop
  endfacet
  facet normal 0 -1 0
    outer loop
      vertex 65 0 15
      vertex 75 0 1
      vertex 75 0 15
    endloop
  endfacet
  facet normal 0 -1 -0
    outer loop
      vertex 75 0 1
      vertex 65 0 0
      vertex 80 0 1
    endloop
  endfacet
  facet normal 0 -1 0
    outer loop
      vertex 65 0 0
      vertex 75 0 1
      vertex 65 0 15
    endloop
  endfacet
  facet normal 0 -1 0
    outer loop
      vertex 80 0 1
      vertex 90 0 15
      vertex 80 0 15
    endloop
  endfacet
  facet normal 0 -1 0
    outer loop
      vertex 80 0 1
      vertex 90 0 0
      vertex 90 0 15
    endloop
  endfacet
  facet normal 0 -1 0
    outer loop
      vertex 90 0 0
      vertex 80 0 1
      vertex 65 0 0
    endloop
  endfacet
  facet normal 1 -0 0
    outer loop
      vertex 75 0 15
      vertex 75 120 1
      vertex 75 120 15
    endloop
  endfacet
  facet normal 1 0 0
    outer loop
      vertex 75 120 1
      vertex 75 0 15
      vertex 75 0 1
    endloop
  endfacet
  facet normal -1 0 0
    outer loop
      vertex 80 0 1
      vertex 80 120 15
      vertex 80 120 1
    endloop
  endfacet
  facet normal -1 -0 0
    outer loop
      vertex 80 120 15
      vertex 80 0 1
      vertex 80 0 15
    endloop
  endfacet
  facet normal 0 0 1
    outer loop
      vertex 95 120 15
      vertex 90 30 15
      vertex 95 30 15
    endloop
  endfacet
  facet normal -0 0 1
    outer loop
      vertex 80 120 15
      vertex 90 30 15
      vertex 95 120 15
    endloop
  endfacet
  facet normal 0 0 1
    outer loop
      vertex 80 0 15
      vertex 90 30 15
      vertex 80 120 15
    endloop
  endfacet
  facet normal 0 0 1
    outer loop
      vertex 90 30 15
      vertex 80 0 15
      vertex 90 0 15
    endloop
  endfacet
  facet normal 1 -0 0
    outer loop
      vertex 90 0 15
      vertex 90 30 0
      vertex 90 30 15
    endloop
  endfacet
  facet normal 1 0 0
    outer loop
      vertex 90 30 0
      vertex 90 0 15
      vertex 90 0 0
    endloop
  endfacet
  facet normal 1 -0 0
    outer loop
      vertex 95 30 15
      vertex 95 120 1
      vertex 95 120 15
    endloop
  endfacet
  facet normal 1 0 0
    outer loop
      vertex 95 120 1
      vertex 95 30 15
      vertex 95 30 1
    endloop
  endfacet
  facet normal 0 -1 0
    outer loop
      vertex 90 30 15
      vertex 95 30 1
      vertex 95 30 15
    endloop
  endfacet
  facet normal 0 -1 -0
    outer loop
      vertex 95 30 1
      vertex 90 30 0
      vertex 100 30 1
    endloop
  endfacet
  facet normal 0 -1 0
    outer loop
      vertex 90 30 0
      vertex 95 30 1
      vertex 90 30 15
    endloop
  endfacet
  facet normal 0 -1 0
    outer loop
      vertex 100 30 1
      vertex 110 30 15
      vertex 100 30 15
    endloop
  endfacet
  facet normal 0 -1 0
    outer loop
      vertex 100 30 1
      vertex 110 30 0
      vertex 110 30 15
    endloop
  endfacet
  facet normal 0 -1 0
    outer loop
      vertex 110 30 0
      vertex 100 30 1
      vertex 90 30 0
    endloop
  endfacet
  facet normal -1 0 0
    outer loop
      vertex 100 30 1
      vertex 100 120 15
      vertex 100 120 1
    endloop
  endfacet
  facet normal -1 -0 0
    outer loop
      vertex 100 120 15
      vertex 100 30 1
      vertex 100 30 15
    endloop
  endfacet
  facet normal 0 0 1
    outer loop
      vertex 115 120 15
      vertex 110 60 15
      vertex 115 60 15
    endloop
  endfacet
  facet normal -0 0 1
    outer loop
      vertex 100 120 15
      vertex 110 60 15
      vertex 115 120 15
    endloop
  endfacet
  facet normal 0 0 1
    outer loop
      vertex 100 30 15
      vertex 110 60 15
      vertex 100 120 15
    endloop
  endfacet
  facet normal 0 0 1
    outer loop
      vertex 110 60 15
      vertex 100 30 15
      vertex 110 30 15
    endloop
  endfacet
  facet normal 1 -0 0
    outer loop
      vertex 110 30 15
      vertex 110 60 0
      vertex 110 60 15
    endloop
  endfacet
  facet normal 1 0 0
    outer loop
      vertex 110 60 0
      vertex 110 30 15
      vertex 110 30 0
    endloop
  endfacet
  facet normal 1 -0 0
    outer loop
      vertex 115 60 15
      vertex 115 120 1
      vertex 115 120 15
    endloop
  endfacet
  facet normal 1 0 0
    outer loop
      vertex 115 120 1
      vertex 115 60 15
      vertex 115 60 1
    endloop
  endfacet
  facet normal 0 -1 0
    outer loop
      vertex 110 60 15
      vertex 115 60 1
      vertex 115 60 15
    endloop
  endfacet
  facet normal 0 -1 -0
    outer loop
      vertex 115 60 1
      vertex 110 60 0
      vertex 120 60 1
    endloop
  endfacet
  facet normal 0 -1 0
    outer loop
      vertex 110 60 0
      vertex 115 60 1
      vertex 110 60 15
    endloop
  endfacet
  facet normal 0 -1 0
    outer loop
      vertex 120 60 1
      vertex 130 60 15
      vertex 120 60 15
    endloop
  endfacet
  facet normal 0 -1 0
    outer loop
      vertex 120 60 1
      vertex 130 60 0
      vertex 130 60 15
    endloop
  endfacet
  facet normal 0 -1 0
    outer loop
      vertex 130 60 0
      vertex 120 60 1
      vertex 110 60 0
    endloop
  endfacet
  facet normal -1 0 0
    outer loop
      vertex 120 60 1
      vertex 120 120 15
      vertex 120 120 1
    endloop
  endfacet
  facet normal -1 -0 0
    outer loop
      vertex 120 120 15
      vertex 120 60 1
      vertex 120 60 15
    endloop
  endfacet
  facet normal 0 0 1
    outer loop
      vertex 135 120 15
      vertex 130 90 15
      vertex 135 90 15
    endloop
  endfacet
  facet normal -0 0 1
    outer loop
      vertex 120 120 15
      vertex 130 90 15
      vertex 135 120 15
    endloop
  endfacet
  facet normal 0 0 1
    outer loop
      vertex 120 60 15
      vertex 130 90 15
      vertex 120 120 15
    endloop
  endfacet
  facet normal 0 0 1
    outer loop
      vertex 130 90 15
      vertex 120 60 15
      vertex 130 60 15
    endloop
  endfacet
  facet normal 1 -0 0
    outer loop
      vertex 130 60 15
      vertex 130 90 0
      vertex 130 90 15
    endloop
  endfacet
  facet normal 1 0 0
    outer loop
      vertex 130 90 0
      vertex 130 60 15
      vertex 130 60 0
    endloop
  endfacet
  facet normal 1 -0 0
    outer loop
      vertex 135 90 15
      vertex 135 120 1
      vertex 135 120 15
    endloop
  endfacet
  facet normal 1 0 0
    outer loop
      vertex 135 120 1
      vertex 135 90 15
      vertex 135 90 1
    endloop
  endfacet
  facet normal 0 -1 0
    outer loop
      vertex 130 90 15
      vertex 135 90 1
      vertex 135 90 15
    endloop
  endfacet
  facet normal 0 -1 -0
    outer loop
      vertex 135 90 1
      vertex 130 90 0
      vertex 140 90 1
    endloop
  endfacet
  facet normal 0 -1 0
    outer loop
      vertex 130 90 0
      vertex 135 90 1
      vertex 130 90 15
    endloop
  endfacet
  facet normal 0 -1 0
    outer loop
      vertex 140 90 1
      vertex 155 90 15
      vertex 140 90 15
    endloop
  endfacet
  facet normal 0 -1 0
    outer loop
      vertex 140 90 1
      vertex 155 90 0
      vertex 155 90 15
    endloop
  endfacet
  facet normal 0 -1 0
    outer loop
      vertex 155 90 0
      vertex 140 90 1
      vertex 130 90 0
    endloop
  endfacet
  facet normal -1 0 0
    outer loop
      vertex 140 90 1
      vertex 140 120 15
      vertex 140 120 1
    endloop
  endfacet
  facet normal -1 -0 0
    outer loop
      vertex 140 120 15
      vertex 140 90 1
      vertex 140 90 15
    endloop
  endfacet
  facet normal -0 0 1
    outer loop
      vertex 140 120 15
      vertex 155 90 15
      vertex 155 120 15
    endloop
  endfacet
  facet normal 0 0 1
    outer loop
      vertex 155 90 15
      vertex 140 120 15
      vertex 140 90 15
    endloop
  endfacet
  facet normal 1 -0 0
    outer loop
      vertex 155 90 15
      vertex 155 120 0
      vertex 155 120 15
    endloop
  endfacet
  facet normal 1 0 0
    outer loop
      vertex 155 120 0
      vertex 155 90 15
      vertex 155 90 0
    endloop
  endfacet
  facet normal -0 0 1
    outer loop
      vertex 15 120 1
      vertex 20 0 1
      vertex 20 120 1
    endloop
  endfacet
  facet normal 0 0 1
    outer loop
      vertex 20 0 1
      vertex 15 120 1
      vertex 15 0 1
    endloop
  endfacet
  facet normal -0 0 1
    outer loop
      vertex 35 120 1
      vertex 40 60 1
      vertex 40 120 1
    endloop
  endfacet
  facet normal 0 0 1
    outer loop
      vertex 40 60 1
      vertex 35 120 1
      vertex 35 60 1
    endloop
  endfacet
  facet normal -0 0 1
    outer loop
      vertex 55 120 1
      vertex 60 90 1
      vertex 60 120 1
    endloop
  endfacet
  facet normal 0 0 1
    outer loop
      vertex 60 90 1
      vertex 55 120 1
      vertex 55 90 1
    endloop
  endfacet
  facet normal -0 0 1
    outer loop
      vertex 75 120 1
      vertex 80 0 1
      vertex 80 120 1
    endloop
  endfacet
  facet normal 0 0 1
    outer loop
      vertex 80 0 1
      vertex 75 120 1
      vertex 75 0 1
    endloop
  endfacet
  facet normal -0 0 1
    outer loop
      vertex 95 120 1
      vertex 100 30 1
      vertex 100 120 1
    endloop
  endfacet
  facet normal 0 0 1
    outer loop
      vertex 100 30 1
      vertex 95 120 1
      vertex 95 30 1
    endloop
  endfacet
  facet normal -0 0 1
    outer loop
      vertex 115 120 1
      vertex 120 60 1
      vertex 120 120 1
    endloop
  endfacet
  facet normal 0 0 1
    outer loop
      vertex 120 60 1
      vertex 115 120 1
      vertex 115 60 1
    endloop
  endfacet
  facet normal -0 0 1
    outer loop
      vertex 135 120 1
      vertex 140 90 1
      vertex 140 120 1
    endloop
  endfacet
  facet normal 0 0 1
    outer loop
      vertex 140 90 1
      vertex 135 120 1
      vertex 135 90 1
    endloop
  endfacet
endsolid OpenSCAD_Model
