Total Cables for Small Confirm Wedge,,,,,,,,,,,,,
3m L1DDC,2m L1DDC,1.5m L1DDC,1.0m L1DDC,3.5m Trigger,3m Trigger,2.5m Trigger,4m SATA-miniSAS breakout,2.5m/1.5m SATA-miniSAS breakout,Total Cables,,,,
12,4,4,8,8,30,8,1,2,77,,,,
,,,,,"(2 for pFEB -> PT, 8 for PT->sFEB, 20 sFEB->Router)",,,,,,,,
,,,,,,,,,,,,,
On wedge L1DDC Cables,,,,,,,,,,,,,
Label Name,Detector Quad,Detector Layer,Pad/Strip,Connector,End Point,End Point Connector Number,Length,Cable Type,On Wedge/Off Wedge,Bundle Number,Bundle Index,Latch Direction,
QS1P_Layer_1_pFEB_L1DDC_1_L1DDC_L1_s-pFE1-1_3m,QS1P,L1,Pad,C1,L1DDC Layer 1 ,s-pFE1-1,3m,L1DDC 1,On,1,5,Down,
QS1P_Layer_2_pFEB_L1DDC_1_L1DDC_L2_s-pFE1-1_3m,QS1P,L2,Pad,C1,L1DDC Layer 2,s-pFE1-1,3m,L1DDC 1,On,3,1,Up,
QS1P_Layer_3_pFEB_L1DDC_1_L1DDC_L3_s-pFE1-1_3m,QS1P,L3,Pad,C1,L1DDC Layer 3,s-pFE1-1,3m,L1DDC 1,On,2,1,Up,
QS1P_Layer_4_pFEB_L1DDC_1_L1DDC_L4_s-pFE1-1_3m,QS1P,L4,Pad,C1,L1DDC Layer 4,s-pFE1-1,3m,L1DDC 1,On,4,5,Down,
QS1P_Layer_1_sFEB_L1DDC_1_L1DDC_L1_s-pFE1-1_3m,QS1P,L1,Strip,C1,L1DDC Layer 1 ,s-pFE1-1,3m,L1DDC 1,On,3,4,Up,
QS1P_Layer_1_sFEB_L1DDC_2_L1DDC_L1_s-pFE1-2_3m,QS1P,L1,Strip,C2,L1DDC Layer 1 ,s-pFE1-2,3m,L1DDC 2,On,3,5,Up,
QS1P_Layer_2_sFEB_L1DDC_1_L1DDC_L2_s-pFE1-1_3m,QS1P,L2,Strip,C1,L1DDC Layer 2,s-pFE1-1,3m,L1DDC 1,On,1,1,Down,
QS1P_Layer_2_sFEB_L1DDC_2_L1DDC_L2_s-pFE1-2_3m,QS1P,L2,Strip,C2,L1DDC Layer 2,s-pFE1-2,3m,L1DDC 2,On,1,2,Down,
QS1P_Layer_3_sFEB_L1DDC_1_L1DDC_L3_s-pFE1-1_3m,QS1P,L3,Strip,C1,L1DDC Layer 3,s-pFE1-1,3m,L1DDC 1,On,4,1,Down,
QS1P_Layer_3_sFEB_L1DDC_2_L1DDC_L3_s-pFE1-2_3m,QS1P,L3,Strip,C2,L1DDC Layer 3,s-pFE1-2,3m,L1DDC 2,On,4,2,Down,
QS1P_Layer_4_sFEB_L1DDC_1_L1DDC_L4_s-pFE1-1_3m,QS1P,L4,Strip,C1,L1DDC Layer 4,s-pFE1-1,3m,L1DDC 1,On,2,4,Up,
QS1P_Layer_4_sFEB_L1DDC_2_L1DDC_L4_s-pFE1-2_3m,QS1P,L4,Strip,C2,L1DDC Layer 4,s-pFE1-2,3m,L1DDC 2,On,2,5,Up,
,,,,,,,,,,,,,
QS2P_Layer_1_pFEB_L1DDC_1_L1DDC_L1_s-pFE2_1.5m,QS2P,L1,Pad,C1,L1DDC Layer 1 ,s-pFE2,1.5m,L1DDC 1,On,1,6,Down,
QS2P_Layer_2_pFEB_L1DDC_1_L1DDC_L2_s-pFE2_1.5m,QS2P,L2,Pad,C1,L1DDC Layer 2,s-pFE2,1.5m,L1DDC 1,On,3,2,Up,
QS2P_Layer_3_pFEB_L1DDC_1_L1DDC_L3_s-pFE2_1.5m,QS2P,L3,Pad,C1,L1DDC Layer 3,s-pFE2,1.5m,L1DDC 1,On,2,2,Up,
QS2P_Layer_4_pFEB_L1DDC_1_L1DDC_L4_s-pFE2_1.5m,QS2P,L4,Pad,C1,L1DDC Layer 4,s-pFE2,1.5m,L1DDC 1,On,4,6,Down,
QS2P_Layer_1_sFEB_L1DDC_1_L1DDC_L1_s-pFE2_2m,QS2P,L1,Strip,C1,L1DDC Layer 1 ,s-pFE2,2m,L1DDC 1,On,3,6,Up,
QS2P_Layer_2_sFEB_L1DDC_1_L1DDC_L2_s-pFE2_2m,QS2P,L2,Strip,C1,L1DDC Layer 2,s-pFE2,2m,L1DDC 1,On,1,3,Down,
QS2P_Layer_3_sFEB_L1DDC_1_L1DDC_L3_s-pFE2_2m,QS2P,L3,Strip,C1,L1DDC Layer 3,s-pFE2,2m,L1DDC 1,On,4,3,Down,
QS2P_Layer_4_sFEB_L1DDC_1_L1DDC_L4_s-pFE2_2m,QS2P,L4,Strip,C1,L1DDC Layer 4,s-pFE2,2m,L1DDC 1,On,2,6,Up,
,,,,,,,,,,,,,
QS3P_Layer_1_pFEB_L1DDC_1_L1DDC_L1_s-pFE3_1m,QS3P,L1,Pad,C1,L1DDC Layer 1 ,s-pFE3,1.0m,L1DDC 1,On,1,7,Down,
QS3P_Layer_2_pFEB_L1DDC_1_L1DDC_L2_s-pFE3_1m,QS3P,L2,Pad,C1,L1DDC Layer 2,s-pFE3,1.0m,L1DDC 1,On,3,3,Up,
QS3P_Layer_3_pFEB_L1DDC_1_L1DDC_L3_s-pFE3_1m,QS3P,L3,Pad,C1,L1DDC Layer 3,s-pFE3,1.0m,L1DDC 1,On,2,3,Up,
QS3P_Layer_4_pFEB_L1DDC_1_L1DDC_L4_s-pFE3_1m,QS3P,L4,Pad,C1,L1DDC Layer 4,s-pFE3,1.0m,L1DDC 1,On,4,7,Down,
QS3P_Layer_1_sFEB_L1DDC_1_L1DDC_L1_s-pFE3_1m,QS3P,L1,Strip,C1,L1DDC Layer 1 ,s-pFE3,1.0m,L1DDC 1,On,3,7,Up,
QS3P_Layer_2_sFEB_L1DDC_1_L1DDC_L2_s-pFE3_1m,QS3P,L2,Strip,C1,L1DDC Layer 2,s-pFE3,1.0m,L1DDC 1,On,1,4,Down,
QS3P_Layer_3_sFEB_L1DDC_1_L1DDC_L3_s-pFE3_1m,QS3P,L3,Strip,C1,L1DDC Layer 3,s-pFE3,1.0m,L1DDC 1,On,4,4,Down,
QS3P_Layer_4_sFEB_L1DDC_1_L1DDC_L4_s-pFE3_1m,QS3P,L4,Strip,C1,L1DDC Layer 4,s-pFE3,1.0m,L1DDC 1,On,2,7,Up,
,,,,,,,,,,,,,
On wedge Pad Trigger Cables,,,,,,,,,,,,,
Label Name,Detector Quad,Detector Layer,Pad/Strip,Connector,End Point,End Point Connector Number,Eventual Termination,Eventual Termination Connector,Length,Cable Type,On Wedge/Off Wedge,Bundle Number,Bundle Index
XP-OUT6-LVD6R-4-1-4-QS1P-L1-sFEB_3,QS1P,L1,Strip,C3,4th LVD6R Repeater,C4 Output,Pad Trigger,OUT6,3.5m Cable,Pad Trigger/sFEB,On,3,5
XP-OUT9-LVD6R-1-1-4-QS1P-L2-sFEB_3,QS1P,L2,Strip,C3,1st LVD6R Repeater,C4 Output,Pad Trigger,OUT9,3.5m Cable,Pad Trigger/sFEB,On,1,5
XP-OUT0-LVD6R-4-2-4-QS1P-L3-sFEB_3,QS1P,L3,Strip,C3,8th LVD6R Repeater,C4 Output,Pad Trigger,OUT0,3.5m Cable,Pad Trigger/sFEB,On,4,5
XP-OUT3-LVD6R-1-2-4-QS1P-L4-sFEB_3,QS1P,L4,Strip,C3,5th LVD6R Repeater,C4 Output,Pad Trigger,OUT3,3.5m Cable,Pad Trigger/sFEB,On,2,5
,,,,,,,,,,,,,
XP-OUT7-LVD6R-4-1-5-QS2P-L1-sFEB_3,QS2P,L1,Strip,C3,4th LVD6R Repeater,C5 Output,Pad Trigger,OUT7,3.5m Cable,Pad Trigger/sFEB,On,3,3
XP-OUT10-LVD6R-1-1-5-QS2P-L2-sFEB_3,QS2P,L2,Strip,C3,1st LVD6R Repeater,C5 Output,Pad Trigger,OUT10,3.5m Cable,Pad Trigger/sFEB,On,1,3
XP-OUT1-LVD6R-4-2-5-QS2P-L3-sFEB_3,QS2P,L3,Strip,C3,8th LVD6R Repeater,C5 Output,Pad Trigger,OUT1,3.5m Cable,Pad Trigger/sFEB,On,4,3
XP-OUT4-LVD6R-1-2-5-QS2P-L4-sFEB_3,QS2P,L4,Strip,C3,5th LVD6R Repeater,C5 Output,Pad Trigger,OUT4,3.5m Cable,Pad Trigger/sFEB,On,2,3
,,,,,,,,,,,,,
XP-OUT8-LVD6R-4-1-6-QS3P-L1-sFEB_3,QS3P,L1,Strip,C3,4th LVD6R Repeater,C6 Output,Pad Trigger,OUT8,3m Cable,Pad Trigger/sFEB,On,3,1
XP-OUT11-LVD6R-1-1-6-QS3P-L2-sFEB_3,QS3P,L2,Strip,C3,1st LVD6R Repeater,C6 Output,Pad Trigger,OUT11,3m Cable,Pad Trigger/sFEB,On,1,1
XP-OUT2-LVD6R-4-2-6-QS3P-L3-sFEB_3,QS3P,L3,Strip,C3,8th LVD6R Repeater,C6 Output,Pad Trigger,OUT2,3m Cable,Pad Trigger/sFEB,On,4,1
XP-OUT5-LVD6R-1-2-6-QS3P-L4-sFEB_3,QS3P,L4,Strip,C3,5th LVD6R Repeater,C6 Output,Pad Trigger,OUT5,3m Cable,Pad Trigger/sFEB,On,2,1
,,,,,,,,,,,,,
pFEB_2_QS1P_L2L4_QS2P_L2L4_SRepeater_PT_IN1,"QS1P, QS2P","L2, L4",Pad,C2,Serial Repeater,Input,Pad Trigger,IN1,2.5/1.5m breakout Cable,Pad Trigger/pFEB,On,,
pFEB_2_QS3P_L1L2L3L4_PT_IN2,QS3P,"L1, L2, L3, L4",Pad,C2,Serial Repeater,Input,Pad Trigger,IN2,4m breakout cable,Pad Trigger/pFEB,On,,
pFEB_2_QS1P_L1L3_QS2P_L1L3_SRepeater_PT_IN4,"QS1P, QS2P","L1, L3",Pad,C2,Serial Repeater,Input,Pad Trigger,IN4,2.5/1.5m breakout Cable,Pad Trigger/pFEB,On,,
,,,,,,,,,,,,,
On wedge Router Trigger Cables,,,,,,,,,,,,,
Label Name,Detector Quad,Detector Layer,Pad/Strip,Connector,End Point,End Point Connector Number,Eventual Termination,Eventual Termination Connector,Length,Cable Type,On Wedge/Off Wedge,Bundle Number,Bundle Index
QS1P_L1_sFEB_4_SR_Router3_J1,QS1P,L1,Strip,C4,Serial Repeater,Input,Router3,J1,3m Cable,Router,On,3,6
QS1P_L2_sFEB_4_SR_Router7_J1,QS1P,L2,Strip,C4,Serial Repeater,Input,Router7,J1,3m Cable,Router,On,1,6
QS1P_L3_sFEB_4_SR_Router4_J1,QS1P,L3,Strip,C4,Serial Repeater,Input,Router4,J1,3m Cable,Router,On,4,6
QS1P_L4_sFEB_4_SR_Router8_J1,QS1P,L4,Strip,C4,Serial Repeater,Input,Router8,J1,3m Cable,Router,On,2,6
,,,,,,,,,,,,,
QS2P_L1_sFEB_4_SR_Router3_J2,QS2P,L1,Strip,C4,Serial Repeater,Input,Router3,J2,3m Cable,Router,On,3,4
QS2P_L2_sFEB_4_SR_Router7_J2,QS2P,L2,Strip,C4,Serial Repeater,Input,Router7,J2,3m Cable,Router,On,1,4
QS2P_L3_sFEB_4_SR_Router4_J2,QS2P,L3,Strip,C4,Serial Repeater,Input,Router4,J2,3m Cable,Router,On,4,4
QS2P_L4_sFEB_4_SR_Router8_J2,QS2P,L4,Strip,C4,Serial Repeater,Input,Router8,J2,3m Cable,Router,On,2,4
,,,,,,,,,,,,,
QS3P_L1_sFEB_4_SR_Router3_J3,QS3P,L1,Strip,C4,Router3,J3,,,3m Cable,Router,On,3,2
QS3P_L2_sFEB_4_SR_Router7_J3,QS3P,L2,Strip,C4,Router7,J3,,,3m Cable,Router,On,1,2
QS3P_L3_sFEB_4_SR_Router4_J3,QS3P,L3,Strip,C4,Router4,J3,,,3m Cable,Router,On,4,2
QS3P_L4_sFEB_4_SR_Router8_J3,QS3P,L4,Strip,C4,Router8,J3,,,3m Cable,Router,On,2,2
,,,,,,,,,,,,,
Off wedge Pad Trigger Cables,,,,,,,,,,,,,
Label Name,Original Detector Quad,Original Detector Layer,Pad/Strip,Connector,Start Point,Start Point Connector Number,End Point ,End Point Connector,Length,Cable Type,On Wedge/Off Wedge,Bundle Number,
XP-OUT6-LVD6R-4-1-4-QS1P-L1-sFEB_3,QS1P,L1,Strip,C3,4th LVD6R Repeater,C4 Input,Pad Trigger,OUT6,2.5m Cable,Pad Trigger/sFEB,Off,4,
XP-OUT9-LVD6R-1-1-4-QS1P-L2-sFEB_3,QS1P,L2,Strip,C3,1st LVD6R Repeater,C4 Input,Pad Trigger,OUT9,2.5m Cable,Pad Trigger/sFEB,Off,3,
XP-OUT0-LVD6R-4-2-4-QS1P-L3-sFEB_3,QS1P,L3,Strip,C3,8th LVD6R Repeater,C4 Input,Pad Trigger,OUT0,2.5m Cable,Pad Trigger/sFEB,Off,4,
XP-OUT3-LVD6R-1-2-4-QS1P-L4-sFEB_3,QS1P,L4,Strip,C3,5th LVD6R Repeater,C4 Input,Pad Trigger,OUT3,2.5m Cable,Pad Trigger/sFEB,Off,3,
,,,,,,,,,,,,,
XP-OUT7-LVD6R-4-1-5-QS2P-L1-sFEB_3,QS2P,L1,Strip,C3,4th LVD6R Repeater,C5 Input,Pad Trigger,OUT7,2.5m Cable,Pad Trigger/sFEB,Off,4,
XP-OUT10-LVD6R-1-1-5-QS2P-L2-sFEB_3,QS2P,L2,Strip,C3,1st LVD6R Repeater,C5 Input,Pad Trigger,OUT10,2.5m Cable,Pad Trigger/sFEB,Off,3,
XP-OUT1-LVD6R-4-2-5-QS2P-L3-sFEB_3,QS2P,L3,Strip,C3,8th LVD6R Repeater,C5 Input,Pad Trigger,OUT1,2.5m Cable,Pad Trigger/sFEB,Off,4,
XP-OUT4-LVD6R-1-2-5-QS2P-L4-sFEB_3,QS2P,L4,Strip,C3,5th LVD6R Repeater,C5 Input,Pad Trigger,OUT4,2.5m Cable,Pad Trigger/sFEB,Off,3,
,,,,,,,,,,,,,
XP-OUT8-LVD6R-4-1-6-QS3P-L1-sFEB_3,QS3P,L1,Strip,C3,4th LVD6R Repeater,C6 Input,Pad Trigger,OUT8,3m Cable,Pad Trigger/sFEB,Off,4,
XP-OUT11-LVD6R-1-1-6-QS3P-L2-sFEB_3,QS3P,L2,Strip,C3,1st LVD6R Repeater,C6 Input,Pad Trigger,OUT11,3m Cable,Pad Trigger/sFEB,Off,3,
XP-OUT2-LVD6R-4-2-6-QS3P-L3-sFEB_3,QS3P,L3,Strip,C3,8th LVD6R Repeater,C6 Input,Pad Trigger,OUT2,3m Cable,Pad Trigger/sFEB,Off,4,
XP-OUT5-LVD6R-1-2-6-QS3P-L4-sFEB_3,QS3P,L4,Strip,C3,5th LVD6R Repeater,C6 Input,Pad Trigger,OUT5,3m Cable,Pad Trigger/sFEB,Off,3,
,,,,,,,,,,,,,
pFEB_2_QS1P_L2L4_QS2P_L2L4_SRepeater_PT_IN1,"QS1P, QS2P","L2, L4",Pad,C2,Serial Repeater,Output,Pad Trigger,IN1,3m Cable,Pad Trigger/pFEB,Off,2,
pFEB_2_QS1P_L1L3_QS2P_L1L3_SRepeater_PT_IN4,"QS1P, QS2P","L1, L3",Pad,C2,Serial Repeater,Output,Pad Trigger,IN4,3m Cable,Pad Trigger/pFEB,Off,1,
,,,,,,,,,,,,,
Off wedge Router Trigger Cables,,,,,,,,,,,,,
Label Name,Original Detector Quad,Original Detector Layer,Pad/Strip,Connector,Start Point,Start Point Connector Number,End Point ,End Point Connector,Length,Cable Type,On Wedge/Off Wedge,Bundle Number,
QS1P_L1_sFEB_4_SR_Router3_J1,QS1P,L1,Strip,C4,Serial Repeater,Input,Router3,J1,3m Cable,Router,On,2,
QS1P_L2_sFEB_4_SR_Router7_J1,QS1P,L2,Strip,C4,Serial Repeater,Input,Router7,J1,3m Cable,Router,On,1,
QS1P_L3_sFEB_4_SR_Router4_J1,QS1P,L3,Strip,C4,Serial Repeater,Input,Router4,J1,3m Cable,Router,On,2,
QS1P_L4_sFEB_4_SR_Router8_J1,QS1P,L4,Strip,C4,Serial Repeater,Input,Router8,J1,3m Cable,Router,On,1,
,,,,,,,,,,,,,
QS2P_L1_sFEB_4_SR_Router3_J2,QS2P,L1,Strip,C4,Serial Repeater,Input,Router3,J2,3m Cable,Router,On,2,
QS2P_L2_sFEB_4_SR_Router7_J2,QS2P,L2,Strip,C4,Serial Repeater,Input,Router7,J2,3m Cable,Router,On,1,
QS2P_L3_sFEB_4_SR_Router4_J2,QS2P,L3,Strip,C4,Serial Repeater,Input,Router4,J2,3m Cable,Router,On,2,
QS2P_L4_sFEB_4_SR_Router8_J2,QS2P,L4,Strip,C4,Serial Repeater,Input,Router8,J2,3m Cable,Router,On,1,
